*** Darwin 8x8 ***
Turn = 0.
  01234567
0 f.......
1 ........
2 ........
3 ...hh...
4 ...hh...
5 ........
6 ........
7 .......f

Turn = 1.
  01234567
0 f.......
1 ........
2 ...h....
3 .....h..
4 ..h.....
5 ....h...
6 ........
7 .......f

Turn = 2.
  01234567
0 f.......
1 ...h....
2 ........
3 ......h.
4 .h......
5 ........
6 ....h...
7 .......f

Turn = 3.
  01234567
0 f..h....
1 ........
2 ........
3 .......h
4 h.......
5 ........
6 ........
7 ....h..f

Turn = 4.
  01234567
0 f..h....
1 ........
2 ........
3 .......h
4 h.......
5 ........
6 ........
7 ....h..f

Turn = 5.
  01234567
0 f..h....
1 ........
2 ........
3 .......h
4 h.......
5 ........
6 ........
7 ....h..f

*** Darwin 7x9 ***
Turn = 0.
  012345678
0 t........
1 .........
2 .........
3 ..h......
4 .........
5 ....r....
6 ........t

Turn = 1.
  012345678
0 t........
1 .........
2 .........
3 ...h.....
4 ....r....
5 .........
6 ........t

Turn = 2.
  012345678
0 t........
1 .........
2 .........
3 ....r....
4 ....r....
5 .........
6 ........t

Turn = 3.
  012345678
0 t........
1 .........
2 .........
3 ....rr...
4 .........
5 .........
6 ........t

Turn = 4.
  012345678
0 t........
1 .........
2 ....r....
3 ......r..
4 .........
5 .........
6 ........t

Turn = 5.
  012345678
0 t........
1 ....r....
2 .........
3 .......r.
4 .........
5 .........
6 ........t

*** Darwin 10x10 ***
Turn = 0.
  0123456789
0 t.........
1 .t........
2 ..t.......
3 ...t......
4 ....t.....
5 .....t....
6 .t.t..t.t.
7 .t.....tt.
8 .h......hh
9 .r.r.....r

Turn = 1.
  0123456789
0 t.........
1 .t........
2 ..t.......
3 ...t......
4 ....t.....
5 .....t....
6 .t.t..t.t.
7 .t.....tt.
8 .r.r....tr
9 .r.......r

Turn = 2.
  0123456789
0 t.........
1 .t........
2 ..t.......
3 ...t......
4 ....t.....
5 .....t....
6 .t.t..t.t.
7 .t.r...tt.
8 .r......tr
9 .r.......r

Turn = 3.
  0123456789
0 t.........
1 .t........
2 ..t.......
3 ...t......
4 ....t.....
5 .....t....
6 .t.r..t.t.
7 .t.r...tt.
8 .r......tr
9 .r.......r

Turn = 4.
  0123456789
0 t.........
1 .t........
2 ..t.......
3 ...t......
4 ....t.....
5 ...r.t....
6 .t.r..t.t.
7 .t.....tt.
8 .t......tt
9 .t.......t

Turn = 5.
  0123456789
0 t.........
1 .t........
2 ..t.......
3 ...t......
4 ...rt.....
5 ...r.t....
6 .t....t.t.
7 .t.....tt.
8 .t......tt
9 .t.......t

Turn = 6.
  0123456789
0 t.........
1 .t........
2 ..t.......
3 ...r......
4 ...rt.....
5 ...r.t....
6 .t....t.t.
7 .t.....tt.
8 .t......tt
9 .t.......t

Turn = 7.
  0123456789
0 t.........
1 .t........
2 ..tr......
3 ...r......
4 ....t.....
5 ....rt....
6 .t....t.t.
7 .t.....tt.
8 .t......tt
9 .t.......t

Turn = 8.
  0123456789
0 t.........
1 .t.r......
2 ..tr......
3 ..........
4 ....t.....
5 ....rr....
6 .t....t.t.
7 .t.....tt.
8 .t......tt
9 .t.......t

Turn = 9.
  0123456789
0 t..r......
1 .t.r......
2 ..t.......
3 ..........
4 ....t.....
5 ....tt....
6 .t....t.t.
7 .t.....tt.
8 .t......tt
9 .t.......t

Turn = 10.
  0123456789
0 t..r......
1 .t.r......
2 ..t.......
3 ..........
4 ....t.....
5 ....tt....
6 .t....t.t.
7 .t.....tt.
8 .t......tt
9 .t.......t

*** Darwin 40x40 ***
Turn = 0.
  0123456789012345678901234567890123456789
0 tt......................................
1 .tt........t............................
2 ..tt........t...........................
3 ...tt........t..........................
4 ....tt........t.........................
5 .....tt........t........................
6 .t.t..ttt....t..t.......................
7 .tt...ttt........t......................
8 .h...h..hh........h............h........
9 rr.rr....r...r..........................
0 ........................................
1 ........................................
2 ........................................
3 ........................................
4 ........................................
5 ........................................
6 .t.t...t................................
7 ..t...t.................................
8 .h...h...h..............................
9 rr..r...................................
0 ........................................
1 ........................................
2 ........................................
3 ........................................
4 ........................................
5 ........................................
6 ........................................
7 .t......................................
8 ........................................
9 ........................................
0 ........................................
1 ........................................
2 ........................................
3 ........................................
4 ........................................
5 ........................................
6 ........................................
7 ........................................
8 ........................................
9 ........................................

Turn = 1.
  0123456789012345678901234567890123456789
0 tt......................................
1 .tt........t............................
2 ..tt........t...........................
3 ...tt........t..........................
4 ....tt........t.........................
5 .....tt........t........................
6 .t.t..ttt....t..t.......................
7 .tt...ttt........t......................
8 rr.rr.h.tr...r.....h............h.......
9 .r.......r..............................
0 ........................................
1 ........................................
2 ........................................
3 ........................................
4 ........................................
5 ........................................
6 .t.t...t................................
7 ..t...t.................................
8 rrh.r.h...h.............................
9 ........................................
0 ........................................
1 ........................................
2 ........................................
3 ........................................
4 ........................................
5 ........................................
6 ........................................
7 .t......................................
8 ........................................
9 ........................................
0 ........................................
1 ........................................
2 ........................................
3 ........................................
4 ........................................
5 ........................................
6 ........................................
7 ........................................
8 ........................................
9 ........................................

Turn = 2.
  0123456789012345678901234567890123456789
0 tt......................................
1 .tt........t............................
2 ..tt........t...........................
3 ...tt........t..........................
4 ....tt........t.........................
5 .....tt........t........................
6 .t.t..ttt....t..t.......................
7 rttrr.ttt....r...t......................
8 .r.....htr..........h............h......
9 .r.......r..............................
0 ........................................
1 ........................................
2 ........................................
3 ........................................
4 ........................................
5 ........................................
6 .t.t...t................................
7 rrt.r.t.................................
8 ...h...h...h............................
9 ........................................
0 ........................................
1 ........................................
2 ........................................
3 ........................................
4 ........................................
5 ........................................
6 ........................................
7 .t......................................
8 ........................................
9 ........................................
0 ........................................
1 ........................................
2 ........................................
3 ........................................
4 ........................................
5 ........................................
6 ........................................
7 ........................................
8 ........................................
9 ........................................

Turn = 3.
  0123456789012345678901234567890123456789
0 tt......................................
1 .tt........t............................
2 ..tt........t...........................
3 ...tt........t..........................
4 ....tt........t.........................
5 .....tt........t........................
6 rt.rr.ttt....r..t.......................
7 .ttr..ttt....r...t......................
8 .r.....htr...........h............h.....
9 .r.......r..............................
0 ........................................
1 ........................................
2 ........................................
3 ........................................
4 ........................................
5 ........................................
6 rr.tr..t................................
7 .rt...t.................................
8 ....h...h...h...........................
9 ........................................
0 ........................................
1 ........................................
2 ........................................
3 ........................................
4 ........................................
5 ........................................
6 ........................................
7 .t......................................
8 ........................................
9 ........................................
0 ........................................
1 ........................................
2 ........................................
3 ........................................
4 ........................................
5 ........................................
6 ........................................
7 ........................................
8 ........................................
9 ........................................

Turn = 4.
  0123456789012345678901234567890123456789
0 tt......................................
1 .tt........t............................
2 ..tt........t...........................
3 ...tt........t..........................
4 ....tt........t.........................
5 r..rrtt......r.t........................
6 .t.r..ttt....r..t.......................
7 .tt...ttt........t......................
8 .t.....htt............h............h....
9 .t.......t..............................
0 ........................................
1 ........................................
2 ........................................
3 ........................................
4 ........................................
5 rr..r...................................
6 .r.t...t................................
7 ..t...t.................................
8 .....h...h...h..........................
9 ........................................
0 ........................................
1 ........................................
2 ........................................
3 ........................................
4 ........................................
5 ........................................
6 ........................................
7 .t......................................
8 ........................................
9 ........................................
0 ........................................
1 ........................................
2 ........................................
3 ........................................
4 ........................................
5 ........................................
6 ........................................
7 ........................................
8 ........................................
9 ........................................

Turn = 5.
  0123456789012345678901234567890123456789
0 tt......................................
1 .tt........t............................
2 ..tt........t...........................
3 ...tt........t..........................
4 r..rtt.......rt.........................
5 ...rttt......r.t........................
6 .t....ttt.......t.......................
7 .tt...ttt........t......................
8 .t.....ttt.............h............h...
9 .t.......t..............................
0 ........................................
1 ........................................
2 ........................................
3 ........................................
4 rr..r...................................
5 .r......................................
6 ...t...t................................
7 ..t...t.................................
8 ......h...h...h.........................
9 ........................................
0 ........................................
1 ........................................
2 ........................................
3 ........................................
4 ........................................
5 ........................................
6 ........................................
7 .t......................................
8 ........................................
9 ........................................
0 ........................................
1 ........................................
2 ........................................
3 ........................................
4 ........................................
5 ........................................
6 ........................................
7 ........................................
8 ........................................
9 ........................................

*** Darwin 50x50 ***
Turn = 0.
  01234567890123456789012345678901234567890123456789
0 tt................................................
1 .tt........t......................................
2 ..tt........t.....................................
3 ...tt........t....................................
4 ....tt........t...................................
5 .....tt........t..................................
6 .t.t..ttt....t..t.................................
7 .tt...ttt........t................................
8 .h...h..hh........h........h...h.......h..........
9 rr.rr....r...r....................................
0 ..................................................
1 ..................................................
2 ..................................................
3 ..................................................
4 ..................................................
5 ..................................................
6 .t.t...t...................t......................
7 ..t...t...........................................
8 .h...h...h.................h...........h..........
9 rr..r.............................................
0 ..................................................
1 ..................................................
2 ..................................................
3 ..................................................
4 ..................................................
5 ..................................................
6 ..................................................
7 .t.........................t......................
8 ..................................................
9 ..................................................
0 ..................................................
1 ..................................................
2 ..................................................
3 ..................................................
4 ..................................................
5 ..................................................
6 ..................................................
7 ..................................................
8 ..................................................
9 r...r........r.............r...........r..........
0 ..................................................
1 ..................................................
2 ..................................................
3 ..................................................
4 ..................................................
5 ..................................................
6 ..................................................
7 ..................................................
8 ..................................................
9 ..................................................

Turn = 1.
  01234567890123456789012345678901234567890123456789
0 tt................................................
1 .tt........t......................................
2 ..tt........t.....................................
3 ...tt........t....................................
4 ....tt........t...................................
5 .....tt........t..................................
6 .t.t..ttt....t..t.................................
7 .tt...ttt........t................................
8 rr.rr.h.tr...r.....h........h...h.......h.........
9 .r.......r........................................
0 ..................................................
1 ..................................................
2 ..................................................
3 ..................................................
4 ..................................................
5 ..................................................
6 .t.t...t...................t......................
7 ..t...t...........................................
8 rrh.r.h...h.................h...........h.........
9 ..................................................
0 ..................................................
1 ..................................................
2 ..................................................
3 ..................................................
4 ..................................................
5 ..................................................
6 ..................................................
7 .t.........................t......................
8 ..................................................
9 ..................................................
0 ..................................................
1 ..................................................
2 ..................................................
3 ..................................................
4 ..................................................
5 ..................................................
6 ..................................................
7 ..................................................
8 r...r........r.............r...........r..........
9 ..................................................
0 ..................................................
1 ..................................................
2 ..................................................
3 ..................................................
4 ..................................................
5 ..................................................
6 ..................................................
7 ..................................................
8 ..................................................
9 ..................................................

Turn = 2.
  01234567890123456789012345678901234567890123456789
0 tt................................................
1 .tt........t......................................
2 ..tt........t.....................................
3 ...tt........t....................................
4 ....tt........t...................................
5 .....tt........t..................................
6 .t.t..ttt....t..t.................................
7 rttrr.ttt....r...t................................
8 .r.....htr..........h........h...h.......h........
9 .r.......r........................................
0 ..................................................
1 ..................................................
2 ..................................................
3 ..................................................
4 ..................................................
5 ..................................................
6 .t.t...t...................t......................
7 rrt.r.t...........................................
8 ...h...h...h.................h...........h........
9 ..................................................
0 ..................................................
1 ..................................................
2 ..................................................
3 ..................................................
4 ..................................................
5 ..................................................
6 ..................................................
7 .t.........................t......................
8 ..................................................
9 ..................................................
0 ..................................................
1 ..................................................
2 ..................................................
3 ..................................................
4 ..................................................
5 ..................................................
6 ..................................................
7 r...r........r.............r...........r..........
8 ..................................................
9 ..................................................
0 ..................................................
1 ..................................................
2 ..................................................
3 ..................................................
4 ..................................................
5 ..................................................
6 ..................................................
7 ..................................................
8 ..................................................
9 ..................................................

Turn = 3.
  01234567890123456789012345678901234567890123456789
0 tt................................................
1 .tt........t......................................
2 ..tt........t.....................................
3 ...tt........t....................................
4 ....tt........t...................................
5 .....tt........t..................................
6 rt.rr.ttt....r..t.................................
7 .ttr..ttt....r...t................................
8 .r.....htr...........h........h...h.......h.......
9 .r.......r........................................
0 ..................................................
1 ..................................................
2 ..................................................
3 ..................................................
4 ..................................................
5 ..................................................
6 rr.tr..t...................t......................
7 .rt...t...........................................
8 ....h...h...h.................h...........h.......
9 ..................................................
0 ..................................................
1 ..................................................
2 ..................................................
3 ..................................................
4 ..................................................
5 ..................................................
6 ..................................................
7 .t.........................t......................
8 ..................................................
9 ..................................................
0 ..................................................
1 ..................................................
2 ..................................................
3 ..................................................
4 ..................................................
5 ..................................................
6 r...r........r.............r...........r..........
7 ..................................................
8 ..................................................
9 ..................................................
0 ..................................................
1 ..................................................
2 ..................................................
3 ..................................................
4 ..................................................
5 ..................................................
6 ..................................................
7 ..................................................
8 ..................................................
9 ..................................................

Turn = 4.
  01234567890123456789012345678901234567890123456789
0 tt................................................
1 .tt........t......................................
2 ..tt........t.....................................
3 ...tt........t....................................
4 ....tt........t...................................
5 r..rrtt......r.t..................................
6 .t.r..ttt....r..t.................................
7 .tt...ttt........t................................
8 .t.....htt............h........h...h.......h......
9 .t.......t........................................
0 ..................................................
1 ..................................................
2 ..................................................
3 ..................................................
4 ..................................................
5 rr..r.............................................
6 .r.t...t...................t......................
7 ..t...t...........................................
8 .....h...h...h.................h...........h......
9 ..................................................
0 ..................................................
1 ..................................................
2 ..................................................
3 ..................................................
4 ..................................................
5 ..................................................
6 ..................................................
7 .t.........................t......................
8 ..................................................
9 ..................................................
0 ..................................................
1 ..................................................
2 ..................................................
3 ..................................................
4 ..................................................
5 r...r........r.............r...........r..........
6 ..................................................
7 ..................................................
8 ..................................................
9 ..................................................
0 ..................................................
1 ..................................................
2 ..................................................
3 ..................................................
4 ..................................................
5 ..................................................
6 ..................................................
7 ..................................................
8 ..................................................
9 ..................................................

Turn = 5.
  01234567890123456789012345678901234567890123456789
0 tt................................................
1 .tt........t......................................
2 ..tt........t.....................................
3 ...tt........t....................................
4 r..rtt.......rt...................................
5 ...rttt......r.t..................................
6 .t....ttt.......t.................................
7 .tt...ttt........t................................
8 .t.....ttt.............h........h...h.......h.....
9 .t.......t........................................
0 ..................................................
1 ..................................................
2 ..................................................
3 ..................................................
4 rr..r.............................................
5 .r................................................
6 ...t...t...................t......................
7 ..t...t...........................................
8 ......h...h...h.................h...........h.....
9 ..................................................
0 ..................................................
1 ..................................................
2 ..................................................
3 ..................................................
4 ..................................................
5 ..................................................
6 ..................................................
7 .t.........................t......................
8 ..................................................
9 ..................................................
0 ..................................................
1 ..................................................
2 ..................................................
3 ..................................................
4 r...r........r.............r...........r..........
5 ..................................................
6 ..................................................
7 ..................................................
8 ..................................................
9 ..................................................
0 ..................................................
1 ..................................................
2 ..................................................
3 ..................................................
4 ..................................................
5 ..................................................
6 ..................................................
7 ..................................................
8 ..................................................
9 ..................................................

Turn = 6.
  01234567890123456789012345678901234567890123456789
0 tt................................................
1 .tt........t......................................
2 ..tt........t.....................................
3 r..rt........r....................................
4 ...rtt.......rt...................................
5 ...tttt......r.t..................................
6 .t....ttt.......t.................................
7 .tt...ttt........t................................
8 .t.....ttt..............h........h...h.......h....
9 .t.......t........................................
0 ..................................................
1 ..................................................
2 ..................................................
3 rr..r.............................................
4 .r................................................
5 ..................................................
6 ...t...t...................t......................
7 ..t...t...........................................
8 .......h...h...h.................h...........h....
9 ..................................................
0 ..................................................
1 ..................................................
2 ..................................................
3 ..................................................
4 ..................................................
5 ..................................................
6 ..................................................
7 .t.........................t......................
8 ..................................................
9 ..................................................
0 ..................................................
1 ..................................................
2 ..................................................
3 r...r........r.............r...........r..........
4 ..................................................
5 ..................................................
6 ..................................................
7 ..................................................
8 ..................................................
9 ..................................................
0 ..................................................
1 ..................................................
2 ..................................................
3 ..................................................
4 ..................................................
5 ..................................................
6 ..................................................
7 ..................................................
8 ..................................................
9 ..................................................

Turn = 7.
  01234567890123456789012345678901234567890123456789
0 tt................................................
1 .tt........t......................................
2 r.tr........tr....................................
3 ...rt........r....................................
4 ...rtt........t...................................
5 ...tttt.....r..t..................................
6 .t....ttt.......t.................................
7 .tt...ttt........t................................
8 .t.....ttt...............h........h...h.......h...
9 .t.......t........................................
0 ..................................................
1 ..................................................
2 rr..r.............................................
3 .r................................................
4 ..................................................
5 ..................................................
6 ...t...t...................t......................
7 ..t...t...........................................
8 ........h...h...h.................h...........h...
9 ..................................................
0 ..................................................
1 ..................................................
2 ..................................................
3 ..................................................
4 ..................................................
5 ..................................................
6 ..................................................
7 .t.........................t......................
8 ..................................................
9 ..................................................
0 ..................................................
1 ..................................................
2 r...r........r.............r...........r..........
3 ..................................................
4 ..................................................
5 ..................................................
6 ..................................................
7 ..................................................
8 ..................................................
9 ..................................................
0 ..................................................
1 ..................................................
2 ..................................................
3 ..................................................
4 ..................................................
5 ..................................................
6 ..................................................
7 ..................................................
8 ..................................................
9 ..................................................

Turn = 8.
  01234567890123456789012345678901234567890123456789
0 tt................................................
1 rtt........t.r....................................
2 ..rr........tr....................................
3 ...tr.............................................
4 ...ttt........t...................................
5 ...tttt....r...t..................................
6 .t....ttt.......t.................................
7 .tt...ttt........t................................
8 .t.....ttt................h........h...h.......h..
9 .t.......t........................................
0 ..................................................
1 rr..r.............................................
2 .r................................................
3 ..................................................
4 ..................................................
5 ..................................................
6 ...t...t...................t......................
7 ..t...t...........................................
8 .........h...h...h.................h...........h..
9 ..................................................
0 ..................................................
1 ..................................................
2 ..................................................
3 ..................................................
4 ..................................................
5 ..................................................
6 ..................................................
7 .t.........................t......................
8 ..................................................
9 ..................................................
0 ..................................................
1 r...r........r.............r...........r..........
2 ..................................................
3 ..................................................
4 ..................................................
5 ..................................................
6 ..................................................
7 ..................................................
8 ..................................................
9 ..................................................
0 ..................................................
1 ..................................................
2 ..................................................
3 ..................................................
4 ..................................................
5 ..................................................
6 ..................................................
7 ..................................................
8 ..................................................
9 ..................................................

Turn = 9.
  01234567890123456789012345678901234567890123456789
0 tt...........r....................................
1 ttt........t.r....................................
2 ..rr........t.....................................
3 ...tt.............................................
4 ...ttt........t...................................
5 ...tttt...r....t..................................
6 .t....ttt.......t.................................
7 .tt...ttt........t................................
8 .t.....ttt.................h........h...h.......h.
9 .t.......t........................................
0 rr..r.............................................
1 .r................................................
2 ..................................................
3 ..................................................
4 ..................................................
5 ..................................................
6 ...t...t...................t......................
7 ..t...t...........................................
8 ..........h...h...h.................h...........h.
9 ..................................................
0 ..................................................
1 ..................................................
2 ..................................................
3 ..................................................
4 ..................................................
5 ..................................................
6 ..................................................
7 .t.........................t......................
8 ..................................................
9 ..................................................
0 r...r........r.............r...........r..........
1 ..................................................
2 ..................................................
3 ..................................................
4 ..................................................
5 ..................................................
6 ..................................................
7 ..................................................
8 ..................................................
9 ..................................................
0 ..................................................
1 ..................................................
2 ..................................................
3 ..................................................
4 ..................................................
5 ..................................................
6 ..................................................
7 ..................................................
8 ..................................................
9 ..................................................

Turn = 10.
  01234567890123456789012345678901234567890123456789
0 tt...........r....................................
1 ttt........t.r....................................
2 ..tt........t.....................................
3 ...tt.............................................
4 ...ttt........t...................................
5 ...tttt..r.....t..................................
6 .t....ttt.......t.................................
7 .tt...ttt........t................................
8 .t.....ttt..................h........h...h.......h
9 rt..r....t........................................
0 .r................................................
1 .r................................................
2 ..................................................
3 ..................................................
4 ..................................................
5 ..................................................
6 ...t...t...................t......................
7 ..t...t...........................................
8 ...........h...h...h.................h...........h
9 ..................................................
0 ..................................................
1 ..................................................
2 ..................................................
3 ..................................................
4 ..................................................
5 ..................................................
6 ..................................................
7 .t.........................t......................
8 ..................................................
9 r...r........r.............r...........r..........
0 ..................................................
1 ..................................................
2 ..................................................
3 ..................................................
4 ..................................................
5 ..................................................
6 ..................................................
7 ..................................................
8 ..................................................
9 ..................................................
0 ..................................................
1 ..................................................
2 ..................................................
3 ..................................................
4 ..................................................
5 ..................................................
6 ..................................................
7 ..................................................
8 ..................................................
9 ..................................................

Turn = 11.
  01234567890123456789012345678901234567890123456789
0 tt............r...................................
1 ttt........t..r...................................
2 ..tt........t.....................................
3 ...tt.............................................
4 ...ttt........t...................................
5 ...tttt.r......t..................................
6 .t....ttt.......t.................................
7 .tt...ttt........t................................
8 rt..r..ttt...................h........h...h......h
9 .t.......t........................................
0 .r................................................
1 .r................................................
2 ..................................................
3 ..................................................
4 ..................................................
5 ..................................................
6 ...t...t...................t......................
7 ..t...t...........................................
8 ............h...h...h.................h..........h
9 ..................................................
0 ..................................................
1 ..................................................
2 ..................................................
3 ..................................................
4 ..................................................
5 ..................................................
6 ..................................................
7 .t.........................t......................
8 r...r........r.............r...........r..........
9 ..................................................
0 ..................................................
1 ..................................................
2 ..................................................
3 ..................................................
4 ..................................................
5 ..................................................
6 ..................................................
7 ..................................................
8 ..................................................
9 ..................................................
0 ..................................................
1 ..................................................
2 ..................................................
3 ..................................................
4 ..................................................
5 ..................................................
6 ..................................................
7 ..................................................
8 ..................................................
9 ..................................................

Turn = 12.
  01234567890123456789012345678901234567890123456789
0 tt.............r..................................
1 ttt........t...r..................................
2 ..tt........t.....................................
3 ...tt.............................................
4 ...ttt........t...................................
5 ...ttttt.......t..................................
6 .t....ttt.......t.................................
7 rtt.r.ttt........t................................
8 .t.....ttt....................h........h...h.....h
9 .t.......t........................................
0 .t................................................
1 .t................................................
2 ..................................................
3 ..................................................
4 ..................................................
5 ..................................................
6 ...t...t...................t......................
7 ..t...t...........................................
8 .............h...h...h.................h.........h
9 ..................................................
0 ..................................................
1 ..................................................
2 ..................................................
3 ..................................................
4 ..................................................
5 ..................................................
6 ..................................................
7 rt..r........r.............r...........r..........
8 ...........................r......................
9 ..................................................
0 ..................................................
1 ..................................................
2 ..................................................
3 ..................................................
4 ..................................................
5 ..................................................
6 ..................................................
7 ..................................................
8 ..................................................
9 ..................................................
0 ..................................................
1 ..................................................
2 ..................................................
3 ..................................................
4 ..................................................
5 ..................................................
6 ..................................................
7 ..................................................
8 ..................................................
9 ..................................................

Turn = 13.
  01234567890123456789012345678901234567890123456789
0 tt..............r.................................
1 ttt........t....r.................................
2 ..tt........t.....................................
3 ...tt.............................................
4 ...ttt........t...................................
5 ...ttttt.......t..................................
6 rt..r.ttt.......t.................................
7 .tt...ttt........t................................
8 .t.....ttt.....................h........h...h....h
9 .t.......t........................................
0 .t................................................
1 .t................................................
2 ..................................................
3 ..................................................
4 ..................................................
5 ..................................................
6 ...t...t...................t......................
7 ..t...t...........................................
8 ..............h...h...h.................h........h
9 ..................................................
0 ..................................................
1 ..................................................
2 ..................................................
3 ..................................................
4 ..................................................
5 ..................................................
6 r...r........r.........................r..........
7 .t.........................r......................
8 ...........................r......................
9 ..................................................
0 ..................................................
1 ..................................................
2 ..................................................
3 ..................................................
4 ..................................................
5 ..................................................
6 ..................................................
7 ..................................................
8 ..................................................
9 ..................................................
0 ..................................................
1 ..................................................
2 ..................................................
3 ..................................................
4 ..................................................
5 ..................................................
6 ..................................................
7 ..................................................
8 ..................................................
9 ..................................................

Turn = 14.
  01234567890123456789012345678901234567890123456789
0 tt...............r................................
1 ttt........t.....r................................
2 ..tt........t.....................................
3 ...tt.............................................
4 ...ttt........t...................................
5 r..trttt.......t..................................
6 .t..r.ttt.......t.................................
7 .tt...ttt........t................................
8 .t.....ttt......................h........h...h...h
9 .t.......t........................................
0 .t................................................
1 .t................................................
2 ..................................................
3 ..................................................
4 ..................................................
5 ..................................................
6 ...t...t...................t......................
7 ..t...t...........................................
8 ...............h...h...h.................h.......h
9 ..................................................
0 ..................................................
1 ..................................................
2 ..................................................
3 ..................................................
4 ..................................................
5 r...r........r.........................r..........
6 ..................................................
7 .t..........................r.....................
8 ..........................r.......................
9 ..................................................
0 ..................................................
1 ..................................................
2 ..................................................
3 ..................................................
4 ..................................................
5 ..................................................
6 ..................................................
7 ..................................................
8 ..................................................
9 ..................................................
0 ..................................................
1 ..................................................
2 ..................................................
3 ..................................................
4 ..................................................
5 ..................................................
6 ..................................................
7 ..................................................
8 ..................................................
9 ..................................................

Turn = 15.
  01234567890123456789012345678901234567890123456789
0 tt................r...............................
1 ttt........t......r...............................
2 ..tt........t.....................................
3 ...tt.............................................
4 r..ttt........t...................................
5 ...trttt.......t..................................
6 .t..r.ttt.......t.................................
7 .tt...ttt........t................................
8 .t.....ttt.......................h........h...h..h
9 .t.......t........................................
0 .t................................................
1 .t................................................
2 ..................................................
3 ..................................................
4 ..................................................
5 ..................................................
6 ...t...t...................t......................
7 ..t...t...........................................
8 ................h...h...h.................h......h
9 ..................................................
0 ..................................................
1 ..................................................
2 ..................................................
3 ..................................................
4 r...r........r.........................r..........
5 ..................................................
6 ..................................................
7 .t...........................r....................
8 .........................r........................
9 ..................................................
0 ..................................................
1 ..................................................
2 ..................................................
3 ..................................................
4 ..................................................
5 ..................................................
6 ..................................................
7 ..................................................
8 ..................................................
9 ..................................................
0 ..................................................
1 ..................................................
2 ..................................................
3 ..................................................
4 ..................................................
5 ..................................................
6 ..................................................
7 ..................................................
8 ..................................................
9 ..................................................

Turn = 16.
  01234567890123456789012345678901234567890123456789
0 tt.................r..............................
1 ttt........t.......r..............................
2 ..tt........t.....................................
3 r..tt.............................................
4 ...ttt........t...................................
5 ...ttttt.......t..................................
6 .t..t.ttt.......t.................................
7 .tt...ttt........t................................
8 .t.....ttt........................h........h...h.h
9 .t.......t........................................
0 .t................................................
1 .t................................................
2 ..................................................
3 ..................................................
4 ..................................................
5 ..................................................
6 ...t...t...................t......................
7 ..t...t...........................................
8 .................h...h...h.................h.....h
9 ..................................................
0 ..................................................
1 ..................................................
2 ..................................................
3 r...r........r.........................r..........
4 ..................................................
5 ..................................................
6 ..................................................
7 .t............................r...................
8 ........................r.........................
9 ..................................................
0 ..................................................
1 ..................................................
2 ..................................................
3 ..................................................
4 ..................................................
5 ..................................................
6 ..................................................
7 ..................................................
8 ..................................................
9 ..................................................
0 ..................................................
1 ..................................................
2 ..................................................
3 ..................................................
4 ..................................................
5 ..................................................
6 ..................................................
7 ..................................................
8 ..................................................
9 ..................................................

Turn = 17.
  01234567890123456789012345678901234567890123456789
0 tt..................r.............................
1 ttt........t........r.............................
2 r.tt........t.....................................
3 ...tt.............................................
4 ...ttt........t...................................
5 ...ttttt.......t..................................
6 .t..t.ttt.......t.................................
7 .tt...ttt........t................................
8 .t.....ttt.........................h........h...hh
9 .t.......t........................................
0 .t................................................
1 .t................................................
2 ..................................................
3 ..................................................
4 ..................................................
5 ..................................................
6 ...t...t...................t......................
7 ..t...t...........................................
8 ..................h...h...h.................h....h
9 ..................................................
0 ..................................................
1 ..................................................
2 r...r........r.........................r..........
3 ..................................................
4 ..................................................
5 ..................................................
6 ..................................................
7 .t.............................r..................
8 .......................r..........................
9 ..................................................
0 ..................................................
1 ..................................................
2 ..................................................
3 ..................................................
4 ..................................................
5 ..................................................
6 ..................................................
7 ..................................................
8 ..................................................
9 ..................................................
0 ..................................................
1 ..................................................
2 ..................................................
3 ..................................................
4 ..................................................
5 ..................................................
6 ..................................................
7 ..................................................
8 ..................................................
9 ..................................................

Turn = 18.
  01234567890123456789012345678901234567890123456789
0 tt...................r............................
1 rtt........t.........r............................
2 r.tt........t.....................................
3 ...tt.............................................
4 ...ttt........t...................................
5 ...ttttt.......t..................................
6 .t..t.ttt.......t.................................
7 .tt...ttt........t................................
8 .t.....ttt..........................h........h..hh
9 .t.......t........................................
0 .t................................................
1 .t................................................
2 ..................................................
3 ..................................................
4 ..................................................
5 ..................................................
6 ...t...t...................t......................
7 ..t...t...........................................
8 ...................h...h...h.................h...h
9 ..................................................
0 ..................................................
1 r...r........r.........................r..........
2 ..................................................
3 ..................................................
4 ..................................................
5 ..................................................
6 ..................................................
7 .t..............................r.................
8 ......................r...........................
9 ..................................................
0 ..................................................
1 ..................................................
2 ..................................................
3 ..................................................
4 ..................................................
5 ..................................................
6 ..................................................
7 ..................................................
8 ..................................................
9 ..................................................
0 ..................................................
1 ..................................................
2 ..................................................
3 ..................................................
4 ..................................................
5 ..................................................
6 ..................................................
7 ..................................................
8 ..................................................
9 ..................................................

Turn = 19.
  01234567890123456789012345678901234567890123456789
0 tt....................r...........................
1 rtt........t..........r...........................
2 r.tt........t.....................................
3 ...tt.............................................
4 ...ttt........t...................................
5 ...ttttt.......t..................................
6 .t..t.ttt.......t.................................
7 .tt...ttt........t................................
8 .t.....ttt...........................h........h.hh
9 .t.......t........................................
0 .t................................................
1 .t................................................
2 ..................................................
3 ..................................................
4 ..................................................
5 ..................................................
6 ...t...t...................t......................
7 ..t...t...........................................
8 ....................h...h...h.................h..h
9 ..................................................
0 r...r........r.........................r..........
1 ..................................................
2 ..................................................
3 ..................................................
4 ..................................................
5 ..................................................
6 ..................................................
7 .t...............................r................
8 .....................r............................
9 ..................................................
0 ..................................................
1 ..................................................
2 ..................................................
3 ..................................................
4 ..................................................
5 ..................................................
6 ..................................................
7 ..................................................
8 ..................................................
9 ..................................................
0 ..................................................
1 ..................................................
2 ..................................................
3 ..................................................
4 ..................................................
5 ..................................................
6 ..................................................
7 ..................................................
8 ..................................................
9 ..................................................

Turn = 20.
  01234567890123456789012345678901234567890123456789
0 tt.....................r..........................
1 ttt........t...........r..........................
2 .rtt........t.....................................
3 ...tt.............................................
4 ...ttt........t...................................
5 ...ttttt.......t..................................
6 .t..t.ttt.......t.................................
7 .tt...ttt........t................................
8 .t.....ttt............................h........hhh
9 .t.......t........................................
0 .t................................................
1 .t................................................
2 ..................................................
3 ..................................................
4 ..................................................
5 ..................................................
6 ...t...t...................t......................
7 ..t...t...........................................
8 .....................h...h...h.................h.h
9 r...r........r.........................r..........
0 ..................................................
1 ..................................................
2 ..................................................
3 ..................................................
4 ..................................................
5 ..................................................
6 ..................................................
7 .t................................r...............
8 ....................r.............................
9 ..................................................
0 ..................................................
1 ..................................................
2 ..................................................
3 ..................................................
4 ..................................................
5 ..................................................
6 ..................................................
7 ..................................................
8 ..................................................
9 ..................................................
0 ..................................................
1 ..................................................
2 ..................................................
3 ..................................................
4 ..................................................
5 ..................................................
6 ..................................................
7 ..................................................
8 ..................................................
9 ..................................................

Turn = 21.
  01234567890123456789012345678901234567890123456789
0 tt......................r.........................
1 ttt........t............r.........................
2 .rrt........t.....................................
3 ...tt.............................................
4 ...ttt........t...................................
5 ...ttttt.......t..................................
6 .t..t.ttt.......t.................................
7 .tt...ttt........t................................
8 .t.....ttt.............................h.......hhh
9 .t.......t........................................
0 .t................................................
1 .t................................................
2 ..................................................
3 ..................................................
4 ..................................................
5 ..................................................
6 ...t...t...................t......................
7 ..t...t...........................................
8 r...r........r........h...h...h........r........hh
9 ..................................................
0 ..................................................
1 ..................................................
2 ..................................................
3 ..................................................
4 ..................................................
5 ..................................................
6 ..................................................
7 .t.................................r..............
8 ...................r..............................
9 ..................................................
0 ..................................................
1 ..................................................
2 ..................................................
3 ..................................................
4 ..................................................
5 ..................................................
6 ..................................................
7 ..................................................
8 ..................................................
9 ..................................................
0 ..................................................
1 ..................................................
2 ..................................................
3 ..................................................
4 ..................................................
5 ..................................................
6 ..................................................
7 ..................................................
8 ..................................................
9 ..................................................

Turn = 22.
  01234567890123456789012345678901234567890123456789
0 tt.......................r........................
1 ttt........t.............r........................
2 .ttt........t.....................................
3 ...tt.............................................
4 ...ttt........t...................................
5 ...ttttt.......t..................................
6 .t..t.ttt.......t.................................
7 .tt...ttt........t................................
8 .t.....ttt..............................h......hhh
9 .t.......t........................................
0 .t................................................
1 .t................................................
2 ..................................................
3 ..................................................
4 ..................................................
5 ..................................................
6 ...t...t...................t......................
7 r.t.r.t......r.........................r..........
8 .......................h...h...h................hh
9 ..................................................
0 ..................................................
1 ..................................................
2 ..................................................
3 ..................................................
4 ..................................................
5 ..................................................
6 ..................................................
7 .t..................................r.............
8 ..................r...............................
9 ..................................................
0 ..................................................
1 ..................................................
2 ..................................................
3 ..................................................
4 ..................................................
5 ..................................................
6 ..................................................
7 ..................................................
8 ..................................................
9 ..................................................
0 ..................................................
1 ..................................................
2 ..................................................
3 ..................................................
4 ..................................................
5 ..................................................
6 ..................................................
7 ..................................................
8 ..................................................
9 ..................................................

Turn = 23.
  01234567890123456789012345678901234567890123456789
0 tt........................r.......................
1 ttt........t..............r.......................
2 .ttt........t.....................................
3 ...tt.............................................
4 ...ttt........t...................................
5 ...ttttt.......t..................................
6 .t..t.ttt.......t.................................
7 .tt...ttt........t................................
8 .t.....ttt...............................h.....hhh
9 .t.......t........................................
0 .t................................................
1 .t................................................
2 ..................................................
3 ..................................................
4 ..................................................
5 ..................................................
6 r..tr..t.....r.............t...........r..........
7 ..t...t...........................................
8 ........................h...h...h...............hh
9 ..................................................
0 ..................................................
1 ..................................................
2 ..................................................
3 ..................................................
4 ..................................................
5 ..................................................
6 ..................................................
7 .t...................................r............
8 .................r................................
9 ..................................................
0 ..................................................
1 ..................................................
2 ..................................................
3 ..................................................
4 ..................................................
5 ..................................................
6 ..................................................
7 ..................................................
8 ..................................................
9 ..................................................
0 ..................................................
1 ..................................................
2 ..................................................
3 ..................................................
4 ..................................................
5 ..................................................
6 ..................................................
7 ..................................................
8 ..................................................
9 ..................................................

Turn = 24.
  01234567890123456789012345678901234567890123456789
0 tt.........................r......................
1 ttt........t...............r......................
2 .ttt........t.....................................
3 ...tt.............................................
4 ...ttt........t...................................
5 ...ttttt.......t..................................
6 .t..t.ttt.......t.................................
7 .tt...ttt........t................................
8 .t.....ttt................................h....hhh
9 .t.......t........................................
0 .t................................................
1 .t................................................
2 ..................................................
3 ..................................................
4 ..................................................
5 r...r........r.........................r..........
6 ...t...t...................t......................
7 ..t...t...........................................
8 .........................h...h...h..............hh
9 ..................................................
0 ..................................................
1 ..................................................
2 ..................................................
3 ..................................................
4 ..................................................
5 ..................................................
6 ..................................................
7 .t....................................r...........
8 ................r.................................
9 ..................................................
0 ..................................................
1 ..................................................
2 ..................................................
3 ..................................................
4 ..................................................
5 ..................................................
6 ..................................................
7 ..................................................
8 ..................................................
9 ..................................................
0 ..................................................
1 ..................................................
2 ..................................................
3 ..................................................
4 ..................................................
5 ..................................................
6 ..................................................
7 ..................................................
8 ..................................................
9 ..................................................

Turn = 25.
  01234567890123456789012345678901234567890123456789
0 tt..........................r.....................
1 ttt........t................r.....................
2 .ttt........t.....................................
3 ...tt.............................................
4 ...ttt........t...................................
5 ...ttttt.......t..................................
6 .t..t.ttt.......t.................................
7 .tt...ttt........t................................
8 .t.....ttt.................................h...hhh
9 .t.......t........................................
0 .t................................................
1 .t................................................
2 ..................................................
3 ..................................................
4 r...r........r.........................r..........
5 ..................................................
6 ...t...t...................t......................
7 ..t...t...........................................
8 ..........................h...h...h.............hh
9 ..................................................
0 ..................................................
1 ..................................................
2 ..................................................
3 ..................................................
4 ..................................................
5 ..................................................
6 ..................................................
7 .t.....................................r..........
8 ...............r..................................
9 ..................................................
0 ..................................................
1 ..................................................
2 ..................................................
3 ..................................................
4 ..................................................
5 ..................................................
6 ..................................................
7 ..................................................
8 ..................................................
9 ..................................................
0 ..................................................
1 ..................................................
2 ..................................................
3 ..................................................
4 ..................................................
5 ..................................................
6 ..................................................
7 ..................................................
8 ..................................................
9 ..................................................

Turn = 26.
  01234567890123456789012345678901234567890123456789
0 tt...........................r....................
1 ttt........t.................r....................
2 .ttt........t.....................................
3 ...tt.............................................
4 ...ttt........t...................................
5 ...ttttt.......t..................................
6 .t..t.ttt.......t.................................
7 .tt...ttt........t................................
8 .t.....ttt..................................h..hhh
9 .t.......t........................................
0 .t................................................
1 .t................................................
2 ..................................................
3 r...r........r.........................r..........
4 ..................................................
5 ..................................................
6 ...t...t...................t......................
7 ..t...t...........................................
8 ...........................h...h...h............hh
9 ..................................................
0 ..................................................
1 ..................................................
2 ..................................................
3 ..................................................
4 ..................................................
5 ..................................................
6 ..................................................
7 .t......................................r.........
8 ..............r...................................
9 ..................................................
0 ..................................................
1 ..................................................
2 ..................................................
3 ..................................................
4 ..................................................
5 ..................................................
6 ..................................................
7 ..................................................
8 ..................................................
9 ..................................................
0 ..................................................
1 ..................................................
2 ..................................................
3 ..................................................
4 ..................................................
5 ..................................................
6 ..................................................
7 ..................................................
8 ..................................................
9 ..................................................

Turn = 27.
  01234567890123456789012345678901234567890123456789
0 tt............................r...................
1 ttt........t..................r...................
2 .ttt........t.....................................
3 ...tt.............................................
4 ...ttt........t...................................
5 ...ttttt.......t..................................
6 .t..t.ttt.......t.................................
7 .tt...ttt........t................................
8 .t.....ttt...................................h.hhh
9 .t.......t........................................
0 .t................................................
1 .t................................................
2 r...r........r.........................r..........
3 ..................................................
4 ..................................................
5 ..................................................
6 ...t...t...................t......................
7 ..t...t...........................................
8 ............................h...h...h...........hh
9 ..................................................
0 ..................................................
1 ..................................................
2 ..................................................
3 ..................................................
4 ..................................................
5 ..................................................
6 ..................................................
7 .t.......................................r........
8 .............r....................................
9 ..................................................
0 ..................................................
1 ..................................................
2 ..................................................
3 ..................................................
4 ..................................................
5 ..................................................
6 ..................................................
7 ..................................................
8 ..................................................
9 ..................................................
0 ..................................................
1 ..................................................
2 ..................................................
3 ..................................................
4 ..................................................
5 ..................................................
6 ..................................................
7 ..................................................
8 ..................................................
9 ..................................................

Turn = 28.
  01234567890123456789012345678901234567890123456789
0 tt.............................r..................
1 ttt........t...................r..................
2 .ttt........t.....................................
3 ...tt.............................................
4 ...ttt........t...................................
5 ...ttttt.......t..................................
6 .t..t.ttt.......t.................................
7 .tt...ttt........t................................
8 .t.....ttt....................................hhhh
9 .t.......t........................................
0 .t................................................
1 rt..r........r.........................r..........
2 ..................................................
3 ..................................................
4 ..................................................
5 ..................................................
6 ...t...t...................t......................
7 ..t...t...........................................
8 .............................h...h...h..........hh
9 ..................................................
0 ..................................................
1 ..................................................
2 ..................................................
3 ..................................................
4 ..................................................
5 ..................................................
6 ..................................................
7 .t........................................r.......
8 ............r.....................................
9 ..................................................
0 ..................................................
1 ..................................................
2 ..................................................
3 ..................................................
4 ..................................................
5 ..................................................
6 ..................................................
7 ..................................................
8 ..................................................
9 ..................................................
0 ..................................................
1 ..................................................
2 ..................................................
3 ..................................................
4 ..................................................
5 ..................................................
6 ..................................................
7 ..................................................
8 ..................................................
9 ..................................................

Turn = 29.
  01234567890123456789012345678901234567890123456789
0 tt..............................r.................
1 ttt........t....................r.................
2 .ttt........t.....................................
3 ...tt.............................................
4 ...ttt........t...................................
5 ...ttttt.......t..................................
6 .t..t.ttt.......t.................................
7 .tt...ttt........t................................
8 .t.....ttt....................................hhhh
9 .t.......t........................................
0 rt..r........r.........................r..........
1 .t................................................
2 ..................................................
3 ..................................................
4 ..................................................
5 ..................................................
6 ...t...t...................t......................
7 ..t...t...........................................
8 ..............................h...h...h.........hh
9 ..................................................
0 ..................................................
1 ..................................................
2 ..................................................
3 ..................................................
4 ..................................................
5 ..................................................
6 ..................................................
7 .t.........................................r......
8 ...........r......................................
9 ..................................................
0 ..................................................
1 ..................................................
2 ..................................................
3 ..................................................
4 ..................................................
5 ..................................................
6 ..................................................
7 ..................................................
8 ..................................................
9 ..................................................
0 ..................................................
1 ..................................................
2 ..................................................
3 ..................................................
4 ..................................................
5 ..................................................
6 ..................................................
7 ..................................................
8 ..................................................
9 ..................................................

Turn = 30.
  01234567890123456789012345678901234567890123456789
0 tt...............................r................
1 ttt........t.....................r................
2 .ttt........t.....................................
3 ...tt.............................................
4 ...ttt........t...................................
5 ...ttttt.......t..................................
6 .t..t.ttt.......t.................................
7 .tt...ttt........t................................
8 .t.....ttt....................................hhhh
9 rt..r....t...r.........................r..........
0 .t................................................
1 .t................................................
2 ..................................................
3 ..................................................
4 ..................................................
5 ..................................................
6 ...t...t...................t......................
7 ..t...t...........................................
8 ...............................h...h...h........hh
9 ..................................................
0 ..................................................
1 ..................................................
2 ..................................................
3 ..................................................
4 ..................................................
5 ..................................................
6 ..................................................
7 .t..........................................r.....
8 ..........r.......................................
9 ..................................................
0 ..................................................
1 ..................................................
2 ..................................................
3 ..................................................
4 ..................................................
5 ..................................................
6 ..................................................
7 ..................................................
8 ..................................................
9 ..................................................
0 ..................................................
1 ..................................................
2 ..................................................
3 ..................................................
4 ..................................................
5 ..................................................
6 ..................................................
7 ..................................................
8 ..................................................
9 ..................................................
