*** Darwin 8x8 ***
Turn = 0.
  01234567
0 f.......
1 ........
2 ........
3 ...hh...
4 ...hh...
5 ........
6 ........
7 .......f

Turn = 1.
  01234567
0 f.......
1 ........
2 ...h....
3 .....h..
4 ..h.....
5 ....h...
6 ........
7 .......f

Turn = 2.
  01234567
0 f.......
1 ...h....
2 ........
3 ......h.
4 .h......
5 ........
6 ....h...
7 .......f

Turn = 3.
  01234567
0 f..h....
1 ........
2 ........
3 .......h
4 h.......
5 ........
6 ........
7 ....h..f

Turn = 4.
  01234567
0 f..h....
1 ........
2 ........
3 .......h
4 h.......
5 ........
6 ........
7 ....h..f

Turn = 5.
  01234567
0 f..h....
1 ........
2 ........
3 .......h
4 h.......
5 ........
6 ........
7 ....h..f

*** Darwin 7x9 ***
Turn = 0.
  012345678
0 t........
1 .........
2 .........
3 ..h......
4 .........
5 ....r....
6 ........t

Turn = 1.
  012345678
0 t........
1 .........
2 .........
3 ...h.....
4 ....r....
5 .........
6 ........t

Turn = 2.
  012345678
0 t........
1 .........
2 .........
3 ....r....
4 ....r....
5 .........
6 ........t

Turn = 3.
  012345678
0 t........
1 .........
2 .........
3 ....rr...
4 .........
5 .........
6 ........t

Turn = 4.
  012345678
0 t........
1 .........
2 ....r....
3 ......r..
4 .........
5 .........
6 ........t

Turn = 5.
  012345678
0 t........
1 ....r....
2 .........
3 .......r.
4 .........
5 .........
6 ........t

*** Darwin 8x8 ***
Turn = 0.
  01234567
0 hhhhhhhh
1 hhhhhhhh
2 hhhhhhhh
3 hhhhhhhh
4 hhhhhhhh
5 hhhhhhhh
6 hhhhhhhh
7 hhhhhhhh

Turn = 1.
  01234567
0 hhhhhhhh
1 hhhhhhhh
2 hhhhhhhh
3 hhhhhhhh
4 hhhhhhhh
5 hhhhhhhh
6 hhhhhhhh
7 hhhhhhhh

Turn = 2.
  01234567
0 hhhhhhhh
1 hhhhhhhh
2 hhhhhhhh
3 hhhhhhhh
4 hhhhhhhh
5 hhhhhhhh
6 hhhhhhhh
7 hhhhhhhh

*** Darwin 10x10 ***
Turn = 0.
  0123456789
0 ..........
1 ..h......h
2 r..r..hh..
3 rt....f...
4 .....h.rfh
5 ..........
6 .hhf....ft
7 ..f..f...f
8 ....t.....
9 ..t....r..

Turn = 2.
  0123456789
0 r.........
1 .........h
2 ..r...h..h
3 .tt...f.r.
4 ..h...hr.h
5 r.........
6 ...f....ft
7 ..f..f...f
8 .h..t.....
9 ..t..r....

Turn = 4.
  0123456789
0 .r........
1 ........rh
2 r.....hr.h
3 .tt...f...
4 ..t....h.h
5 ..........
6 ...f....tt
7 r.f..f...f
8 ....t.....
9 .tt.t.....

Turn = 6.
  0123456789
0 ...r...rr.
1 r........h
2 ......h..h
3 .tt...f...
4 ..t.....hh
5 ..........
6 ...f....tt
7 ..f..f...t
8 ....t.....
9 rtt.t.....

Turn = 8.
  0123456789
0 r....r..rr
1 .........h
2 ......h..h
3 .tt...f...
4 ..t.....hh
5 ..........
6 ...f....tt
7 ..f..f...t
8 ....t.....
9 rrt.t.....

Turn = 10.
  0123456789
0 .......r.r
1 r.......rr
2 ......h..h
3 .tt...f...
4 ..t.....hh
5 ..........
6 ...f....tt
7 .rf..f...t
8 ....t.....
9 r.t.t.....

*** Darwin 30x30 ***
Turn = 0.
  012345678901234567890123456789
0 ......r.......t...f....t......
1 .....r................h.......
2 .......h.....r.....ht........t
3 ...........t........rf....f...
4 ......t......................h
5 ..................t..........t
6 .....h..fh..r.................
7 ...........................r..
8 ........f..f..t.r......t.t....
9 ..rf.....tt.....h.............
0 .........t............r.......
1 ..............................
2 r................tt...........
3 ..........h.rth..........f....
4 r...t...f....h.............rf.
5 .f....t.......................
6 .r.......t..h.................
7 ..f...h.....................t.
8 .........f........t...........
9 .h.........t..........t.......
0 .........................h....
1 .....h.t.....................h
2 .....r..........t.........t..t
3 ................f.............
4 .f..r..........h....r.......fr
5 ..............................
6 .h.f......h...................
7 .........f......h........f....
8 .....h........................
9 ...r...r....f.r....h.......r..

Turn = 10.
  012345678901234567890123456789
0 .............rt...f....t......
1 ..............................
2 ...............r...tt........t
3 ......rr............ttt...f...
4 ......t...............t......t
5 ..................t..........t
6 r......hfh....................
7 ..............................
8 ........f.rf..t...........r.r.
9 ...f.....tt............r..h...
0 ....r..r.t....................
1 .........r....................
2 ........r........tt...........
3 h....r.h.................f....
4 ....tt...........r..........f.
5 .f...tt..r....................
6 ........r.....................
7 ..f......r.r...............tt.
8 .........t........t...........
9 ...........t..r....h..t.......
0 .......r.....r................
1 .......r.....................t
2 ................t.........t..t
3 .h..............t.............
4 rf..............t...r.........
5 ...........r..................
6 rr.......................h....
7 .........f...............f....
8 h.r...........................
9 rr..........f....rr......r....

Turn = 20.
  012345678901234567890123456789
0 ...r..r...........frr..t......
1 ..............................
2 .............................t
3 ....................ttt...f...
4 ......t...........t...t......t
5 ..................t..........t
6 rr.....hfh....................
7 ..............t...............
8 ........f..f..t........r......
9 r..f.....t.........h..........
0 .............r.r..............
1 ...............r..............
2 r................tt...........
3 r.......r................f..r.
4 ....tt......................r.
5 .....ttt......................
6 .r...........................r
7 ..rr......rr...............tt.
8 .rr......r........t...........
9 r......r..rt.....rr...tr......
0 .........r....................
1 .............................t
2 ................t.........t..t
3 .r.r............t.............
4 r...............t.............
5 .........r..r.................
6 ........rr...............h....
7 ....r.r...r..............f....
8 ...........r..................
9 .....r...rr..r.r..............

Turn = 30.
  012345678901234567890123456789
0 ..........r..r....r....t......
1 ...........rr.................
2 ..........................r..t
3 ..........................r.r.
4 ......t...........t.........rt
5 ..................tt.........t
6 ....r..rrh....................
7 .......rr.....t...............
8 ..r........f..rr.....r........
9 ...f....tt.......r............
0 ..r..............r.......r....
1 .........................r....
2 .........r........t...........
3 ..................rr..........
4 r...tt........................
5 r....ttt....r.................
6 .r....r......................t
7 .......r...................ttt
8 ...........rr.................
9 ...........r.............r.r..
0 .........r.....r..............
1 r.........r..................t
2 ................t.........t..t
3 ................t.............
4 .........r....r.t.............
5 ............r..r..............
6 .r...r.r.................h....
7 ..r...r.............r....f....
8 .rr......r..........r.........
9 ....r....r...rr........r......

*** Darwin 30x30 ***
Turn = 0.
  012345678901234567890123456789
0 f.....r.......t.h.t....th..h..
1 .....r................h.......
2 .r.....h.....r..f..hr.h......t
3 ........hr.t.hh...h.rf....f...
4 ...t..t......................h
5 ...h......th..t...t.....f....t
6 ...r.h..fht.r.....r.....t.....
7 .r....r...........hr.......r..
8 .....r.tff.f..t.r......t.t..t.
9 ..rf.....tt.....h....h........
0 ....r...ft............r.......
1 .............f...h...r........
2 r..f.f.........f.tt.h.........
3 ..........h.rhh........h.f.f..
4 r..ft...t....h.......t.....rf.
5 .h....t............h......tf..
6 .rr......t..h.........h.......
7 ..f...h...r.......ttf.......h.
8 ...f.....f.......ttt.r........
9 .h.h.......thr......f.t.t.....
0 ..t...........f....t.....h..r.
1 .....h.t.h............h......h
2 ....hr...r......t.t.......t..t
3 ................fh....f.th....
4 .f..r.....t....h....r..h....fr
5 t.............................
6 .hhffr....f.............h..r..
7 .........f......h........f..t.
8 .....h....fh..................
9 ...r...r....f.r....h.......r..

Turn = 10.
  012345678901234567890123456789
0 r...........r.tt..tt..r....r..
1 .r.r.....r.......h............
2 r.........r.....f...hh.......t
3 ......trh...........hfr...f...
4 ...t..rr....r...........t....t
5 ...t..r......r.r..t....tt....t
6 ....r....tttth....tt..r.t.....
7 ..r....rr...h.rr.......r......
8 ...r.r..rt.f..r.........rr..t.
9 ...f.....tr...................
0 ........ttr...................
1 r.....................r.......
2 ..r..rr........f.ttt......r...
3 ...r.tr..r.....r.........f..rr
4 ...tttr..................r.r..
5 ....trr..................rt..r
6 .r....r..t....................
7 .........t........ttth.......h
8 ...f.....t.......ttt..t.......
9 ......r..t.tt.r...t.f.t.t.....
0 .......r......r....t..tt......
1 ..rr...rr.....r....h.........t
2 .r.....r........t.t.......t..t
3 .rr....r........tt....f.ttt...
4 trr.......t.....tt........t...
5 t..........r.......r..........
6 .......r....................rh
7 ......r.....r............f...r
8 h............r.......r........
9 r..........hf....r.....h..r...

Turn = 20.
  012345678901234567890123456789
0 .....r.r.r...h.r.....r...r....
1 ........r....r..r........r....
2 ................r...hh.......t
3 ......trh.....r...r.hf....r...
4 ...t..rr......r..r.r..r...r..t
5 ..ttt.r..t........ttt.....r..t
6 ...t.....ttt.rr...tttt........
7 .rr..r....t...................
8 .....r...tt...r.........r...t.
9 r...rr...t............r.....t.
0 rrr.....rttt..................
1 r.r.....r.....................
2 ...r.........r.f.ttt.r........
3 ..r.....r.rr.................r
4 ........r..rr.r...............
5 r....r...t.....r..........t...
6 .........t....................
7 ........tt.......rttt.......r.
8 .........t.....r..tt.ttt...r.r
9 r..........tt.....t.f.t.t.....
0 r......r.........rtt..tt...r.r
1 .....r...........rtt.......r.r
2 ..rr.r.........tt.t.......tr..
3 r.........t.....tt....r.tttr..
4 ..r.......t.....tt....r...t...
5 t...............t.........t...
6 tr.......r....................
7 t...........r.........r..f....
8 .......................r......
9 r......r...h..r....r.........r

Turn = 30.
  012345678901234567890123456789
0 rrr............rrr.r..........
1 .r............r........r.r...t
2 ......r.r.......r...hh.......t
3 r.....trrrr.r..r..............
4 r..t..rr............rr.r....t.
5 ..ttt...r.rr.r.......r......t.
6 .r.t....rrrr.........r...r....
7 r.......rrr...r.......r.....r.
8 ........r......r......r....tt.
9 ..r....rr......rrr..........tt
0 ........r...r.r..r............
1 .................tt..........r
2 ...............f.r..........r.
3 ........r.......rr............
4 r.r..............rr.....r.....
5 .r.r...rrr..............r.t...
6 .r......trrr...........r......
7 r...r..rttr.r.r...ttt..r......
8 r..r....rt.....r.rtt.ttrr.....
9 ...r.............rt.f.t.ttt...
0 .................rt...tt......
1 ...........r..........t...t...
2 ...............ttrr.......t...
3 .........tt.....tt......tttt..
4 ..........t.....rt........t..r
5 t...............tt........t.r.
6 tt........r.....t......r......
7 tt............................
8 ...................r..........
9 r......r.......r....rr.......r

*** Darwin 20x20 ***
Turn = 0.
  01234567890123456789
0 ..r......t......r...
1 ...............r...h
2 ...r...t............
3 ...t..r...rf........
4 r.....thf.....rh.r.h
5 .f..............t..t
6 hh...h...t..h.......
7 .........f..f...h...
8 ........tf.f....r...
9 ..r....r.........r..
0 ...t....f......h....
1 ..h..............t..
2 r....r...t......h...
3 h.....f....t..h.....
4 .f.....r..........fr
5 ....................
6 .rr..........f....f.
7 ..f....rt......fh...
8 ....th..f...........
9 .t.rr....tt.tf..f...

Turn = 5.
  01234567890123456789
0 .......r.t........r.
1 r...........h......h
2 r......t............
3 ...t.......f....r...
4 r.....ttt......r.t.t
5 .f..............t..t
6 h.......tt......t...
7 r....r...t..f......r
8 ........ttrf..r.....
9 ..r..........r......
0 r..t....f...........
1 .r...............t..
2 .........t..........
3 r.....f....tt.......
4 rf..........r..r....
5 ...............h...r
6 ..h..........f..r...
7 .......rt......fh..h
8 ...r...rt...........
9 .rrrr...ttt.tt..f...

Turn = 10.
  01234567890123456789
0 ...r....tt..h....r..
1 ...................h
2 .....r.t............
3 ...t.......f.......r
4 .r....ttt.r......t.t
5 r...............t..t
6 .r......tt......t..t
7 r..r.....t..f.......
8 ........tt.f.......r
9 ........r...........
0 ...t....f...........
1 r............rr..t..
2 r.......rt..........
3 .r....f.r.rtt.......
4 .r.....r............
5 ....................
6 rr...........f....rr
7 ...................r
8 .r......rt......h...
9 rr.r...rttt.tt.rf..r

Turn = 15.
  01234567890123456789
0 .......rrr..rr......
1 ..r................h
2 .......t............
3 ...t.......f........
4 ...t..ttt........r.r
5 .....r..t.......tr.r
6 ........tt...rr.t..r
7 ........rt..f.......
8 ........tt.f........
9 .......rt...........
0 rr.t....t...........
1 r.rt....t........t.r
2 .....r...t........rr
3 .....r.r...tt......r
4 ......r.............
5 .r..................
6 r............f......
7 ....r.....r.......r.
8 r....rr....r.....r..
9 ......r.rtt.ttr.h...

*** Darwin 25x15 ***
Turn = 0.
  012345678901234
0 ......r........
1 ........f...r..
2 ..........fh...
3 ...t.h...f.t...
4 .......r..t.f..
5 .f.t..........t
6 ...f.h.t..h....
7 r.............t
8 .r............h
9 rf.f.....t..hf.
0 .......r.......
1 .h...h.h....h..
2 ..f....h.....t.
3 .f..........r..
4 .h.....tf...r..
5 .......r.th....
6 ...............
7 .ht...h..f.....
8 .....rf.f.h..t.
9 .hr.t.t.....r.r
0 ...f..t.t......
1 .r...r...t....h
2 .tf.ht......r.t
3 ........t..f..t
4 hf.rrr.....tr..

Turn = 20.
  012345678901234
0 .....h.........
1 ........f......
2 ..........tt...
3 ..rtt....f.tt..
4 ..........t.t.r
5 rf.t...........
6 ...t...rt.....r
7 .......r......t
8 .r.....r......t
9 rrrr....tt..tt.
0 r.r.........t..
1 ....r.......t..
2 .h.........rtt.
3 .f.....t.......
4 r......ttt.....
5 .h.....t.t.....
6 .h.............
7 ........t.....t
8 .....rr.tt...tt
9 r.rr..rt.t.....
0 r..rr.r.tt.....
1 ..r...........t
2 ......r.......t
3 r.......r.....t
4 r.....r..rr...t

Turn = 40.
  012345678901234
0 ....rrr........
1 ..r.....f......
2 ..r.t.....tt...
3 r..tt....f.tt..
4 ..........t.t..
5 rr.t......tt...
6 ..rrttt.t......
7 ...tt..........
8 ...t........tt.
9 r.......tt..tt.
0 ............tt.
1 ...r.........t.
2 .r...........t.
3 ............r..
4 ......ttrt.....
5 .....rr.r......
6 ......rr.......
7 ...........r..t
8 .......rr.r.ttt
9 ...r...rr.r..t.
0 .............t.
1 r....r.........
2 rrr.....rr.....
3 ..r.......r....
4 rrr.r...rr...r.

Turn = 60.
  012345678901234
0 ...r.rr........
1 r...t.r.f......
2 ...rr.....tt...
3 ....r.r..f.rt..
4 ...ttt....ttt.r
5 ...t..t...tt...
6 ...tttt.t....r.
7 ...tt.t........
8 ....ttr.....t..
9 .........t.rttr
0 .........t...rr
1 r...........r.r
2 ...r...r...r...
3 ..........r..rr
4 ....rr.rr......
5 ...r..........r
6 ...............
7 r.......r......
8 ....rr.r.......
9 .....r........r
0 r.......r..r..r
1 ...............
2 rr........r...r
3 rr.......r.....
4 .....rr......r.
