*** Darwin 41x2 ***
Turn = 0.
  01
0 ht
1 rr
2 th
3 t.
4 .h
5 .h
6 ..
7 h.
8 tf
9 rr
0 .h
1 .f
2 .f
3 th
4 .t
5 r.
6 t.
7 th
8 .h
9 .h
0 ..
1 f.
2 ..
3 ..
4 rh
5 ..
6 rf
7 ..
8 ..
9 tr
0 .t
1 tf
2 hh
3 hr
4 tt
5 rr
6 .t
7 h.
8 ..
9 .h
0 hh

Turn = 26.
  01
0 rr
1 rr
2 ..
3 r.
4 rr
5 r.
6 rr
7 rr
8 rr
9 ..
0 r.
1 ..
2 r.
3 .r
4 rr
5 rr
6 r.
7 rr
8 rr
9 tt
0 .r
1 ..
2 ..
3 ..
4 ..
5 ..
6 ..
7 .r
8 .t
9 tt
0 .t
1 tt
2 tt
3 tt
4 tt
5 tt
6 .t
7 .t
8 ..
9 .h
0 hh

*** Darwin 29x37 ***
Turn = 0.
  0123456789012345678901234567890123456
0 .....................................
1 .................h............t......
2 .....t........................t......
3 .........t...........h...f....rt.....
4 ........................r............
5 ..h..f.......................h..ht...
6 ..................h.h................
7 .......f..f..........................
8 ......................t.......t...f..
9 .....................................
0 h.f...f....r..........h...........r..
1 ...............................hr....
2 .............h........r........h....f
3 ......f..............................
4 r................r...................
5 ...h..r............r....r............
6 r...f..............t.................
7 .............f...r................f..
8 .........f...............h..t........
9 .....................................
0 ..................f..................
1 .....................h.........t.....
2 .....................................
3 .....................................
4 ............r..............rh.......f
5 ....t....f.rf.......f.............f..
6 r.............t......................
7 ...............f.....................
8 ...f.................................

Turn = 20.
  0123456789012345678901234567890123456
0 .r.h..............r.r.r.......r......
1 .r............................t......
2 r.r..t.....r.........................
3 .........t.......r.......f....tt.....
4 .........................h....t......
5 .....f...h.......................r...
6 ................................r....
7 .......f..f......................r..r
8 ...................................r.
9 ..h.................................r
0 ..f...fh.............................
1 .....................................
2 ...................................hf
3 ......f..............................
4 ....................r................
5 ....................r................
6 ....f........h.....t.................
7 r............f.....t..............f.r
8 .........f..................t........
9 ............................t........
0 ............r.....f............tt....
1 ...............................tt....
2 ...r.................................
3 ....r................................
4 ....................................f
5 .r.......f...................r....f..
6 r.............t......................
7 ...............f.....................
8 .....................h............r..

Turn = 40.
  0123456789012345678901234567890123456
0 r..............rr...r...........r...r
1 .....................r........t......
2 ...rttt.......................t......
3 .........t.....r.r............tt.....
4 ....r.........................t......
5 .....fh..............................
6 ..................r..................
7 .......f..f.....................r....
8 .................................r.r.
9 ..h....r..........................r..
0 ..f...fh..........................r..
1 .....................................
2 ....................................h
3 ......f.....r........................
4 .....................................
5 .r...................................
6 ..........r........t.................
7 .................r.t.................
8 .........f..................t........
9 ............................t...t....
0 ...............................ttt...
1 ...............................tt....
2 ........r............................
3 .................r...r...............
4 .......................r...r.........
5 ................r.........r..........
6 ..............t......................
7 ...............f.................r..r
8 ....r........r.............r.......r.

*** Darwin 36x7 ***
Turn = 0.
  0123456
0 .......
1 .f....r
2 ...f.hr
3 .......
4 .......
5 .....r.
6 .t..t..
7 ....t..
8 ..r....
9 ..hh...
0 ...t...
1 .....hr
2 .......
3 .t.....
4 .......
5 ..f....
6 .h.r...
7 ....h..
8 ...f..r
9 f...h..
0 .......
1 ..f....
2 .......
3 .......
4 ..r....
5 ...t...
6 ..h...h
7 ..hh...
8 .......
9 ....r.f
0 ......f
1 ....r..
2 .......
3 ......t
4 ..r....
5 .rf..t.

Turn = 6.
  0123456
0 .r.....
1 .r.....
2 .r.....
3 .......
4 .......
5 r..r...
6 .t..t..
7 ....tt.
8 .....t.
9 ......h
0 ...t...
1 .......
2 r......
3 .tr....
4 rr.....
5 ..f....
6 .......
7 ......r
8 ...f...
9 f......
0 .......
1 r......
2 r......
3 ....h..
4 ......r
5 ...th..
6 ......h
7 ......h
8 r......
9 ......f
0 r.h...f
1 r......
2 ...h...
3 ......t
4 ...r...
5 ....r.r

Turn = 12.
  0123456
0 ..r....
1 .r.....
2 r......
3 .r.....
4 .......
5 .......
6 .t..t..
7 ....tt.
8 .....t.
9 .r.r..h
0 r.r....
1 .r.....
2 .......
3 r......
4 .......
5 r......
6 .......
7 .......
8 ..rf...
9 f......
0 .......
1 ....r..
2 .......
3 ......r
4 r.r.t..
5 r.rtrr.
6 ....t..
7 ......h
8 .......
9 ......f
0 ......f
1 ......r
2 .......
3 r..r...
4 r.....r
5 ..r....

Turn = 18.
  0123456
0 ......r
1 ......r
2 .......
3 ......r
4 .r.....
5 .......
6 rr..t..
7 r..rtt.
8 r....t.
9 r....tt
0 .......
1 .......
2 ....r..
3 .......
4 .......
5 .......
6 .......
7 .......
8 ...f...
9 r......
0 r....r.
1 r......
2 ...r...
3 .r.....
4 ...tt.r
5 .......
6 ......r
7 .....r.
8 r..r..r
9 ......r
0 .r.rrr.
1 .......
2 .......
3 .r.....
4 ......r
5 r......

Turn = 24.
  0123456
0 r.r....
1 r.....r
2 r......
3 r...r..
4 r......
5 ......r
6 ......r
7 ......r
8 ...r..t
9 .....tt
0 .......
1 ...r...
2 .......
3 .......
4 .....r.
5 r.....r
6 .......
7 .......
8 ...f...
9 r.....r
0 .......
1 .......
2 r......
3 ...r...
4 ...tt.r
5 ......r
6 ...r...
7 r.r....
8 .......
9 r......
0 r...r..
1 .......
2 r.....r
3 .......
4 r....r.
5 ...r..r

*** Darwin 30x1 ***
Turn = 0.
  0
0 .
1 .
2 .
3 .
4 .
5 r
6 .
7 .
8 .
9 .
0 .
1 .
2 .
3 .
4 .
5 .
6 .
7 .
8 .
9 .
0 .
1 .
2 .
3 r
4 h
5 h
6 r
7 .
8 t
9 .

Turn = 56.
  0
0 .
1 .
2 .
3 .
4 .
5 .
6 .
7 .
8 r
9 .
0 r
1 .
2 .
3 .
4 .
5 .
6 .
7 .
8 .
9 .
0 .
1 .
2 r
3 .
4 r
5 .
6 .
7 r
8 .
9 r

*** Darwin 15x43 ***
Turn = 0.
  0123456789012345678901234567890123456789012
0 ...................................r.......
1 ...............t..........f....r...........
2 f.........f....h....f.......h..............
3 ...h.....f........f..............f..h.h....
4 .t.....................t.h.................
5 .................h..............r....h.....
6 ........................................r..
7 ................t..........................
8 ..t.....................f.r.......h....r...
9 .......r....f....r.h.......................
0 .h.....r......t......t.......h....h........
1 .h........r..........................t....t
2 ..h.......................................t
3 .............h.........r....h.......f...f..
4 ...........r......t.............t........r.

Turn = 19.
  0123456789012345678901234567890123456789012
0 .............h..............r...r.....r....
1 ...............r............r........r.....
2 f.........fh...r....f......................
3 .........f........f..............f..r......
4 .t..................r...t..................
5 ..................r........................
6 ..........................................r
7 ................t..........................
8 ..tt.................r....r......r.rr......
9 ...r........f..............r.......r.......
0 ...r..................r.......r.r.........t
1 .....................t.r.............t....t
2 ........................r.................t
3 ................rr.................hf...f..
4 r...r............h......r..................

Turn = 38.
  0123456789012345678901234567890123456789012
0 .r...........hr................r..r.....r..
1 .............r....................rr...r.r.
2 ...r......fh.........r....................r
3 .........f..............ttr.........r....r.
4 .t......................tt................r
5 ...........................................
6 r.....................................r....
7 ................t..........................
8 ..tt..................................r....
9 ...t........f..............r...............
0 ...t.r.....r.r..........................r..
1 ...................r.t........rr...........
2 ..............................r............
3 ........r.........................r..r..r..
4 .......r.r............................r...r

*** Darwin 17x8 ***
Turn = 0.
  01234567
0 ..h.....
1 r....f..
2 r.f.f...
3 .....f..
4 ....f...
5 ........
6 ....t...
7 t..h...f
8 ....f...
9 t.....h.
0 .....t..
1 ....hf..
2 ........
3 ...ff.h.
4 ...r....
5 h.......
6 ..f.h...

Turn = 24.
  01234567
0 ..r.....
1 ........
2 ..f.f..r
3 ........
4 r...f...
5 r.......
6 ....tt..
7 ....t...
8 ....t...
9 t......r
0 .r...tt.
1 h....t..
2 ........
3 ...ff..r
4 ...rr...
5 h.......
6 r.......

*** Darwin 37x7 ***
Turn = 0.
  0123456
0 .h.....
1 .......
2 .......
3 ..r....
4 .......
5 .f....r
6 .......
7 h......
8 .......
9 .......
0 .t.r...
1 .......
2 .......
3 .......
4 r......
5 ....f..
6 .......
7 r....r.
8 hh.....
9 ..h...t
0 ......f
1 .......
2 .......
3 .......
4 .......
5 .......
6 .......
7 .......
8 ......t
9 .......
0 .......
1 .....r.
2 ...r...
3 .t.....
4 .......
5 .r.....
6 ....f..

Turn = 47.
  0123456
0 .......
1 .......
2 .......
3 .......
4 .......
5 .......
6 .......
7 ...r...
8 .rr....
9 rr...r.
0 r.....r
1 r......
2 rr.....
3 .......
4 .......
5 ....r..
6 ....r..
7 .......
8 .......
9 ......t
0 ......t
1 .......
2 .......
3 .......
4 .......
5 .....r.
6 ..r....
7 .......
8 ......t
9 ......t
0 .r....r
1 .r.....
2 .......
3 .......
4 .......
5 .......
6 .......

Turn = 94.
  0123456
0 ..r....
1 .......
2 .......
3 .......
4 ......r
5 .......
6 .......
7 .......
8 .......
9 ......r
0 ...rr..
1 .......
2 .......
3 r......
4 .......
5 .......
6 .......
7 .......
8 .......
9 .......
0 .....r.
1 .......
2 ......r
3 .......
4 ....r..
5 .......
6 ...r...
7 .......
8 r...r..
9 ......t
0 ......t
1 ......t
2 .......
3 ......r
4 .......
5 rr.r...
6 rr..r..

*** Darwin 33x26 ***
Turn = 0.
  01234567890123456789012345
0 ..........................
1 ..........................
2 ..........................
3 ..........................
4 .........f................
5 ..........................
6 ..........................
7 t.........................
8 ..f.......................
9 ..........................
0 ..........................
1 ..........................
2 ........f.................
3 ..........................
4 ..........................
5 ..........................
6 ..........................
7 ..........................
8 ..........................
9 ..........................
0 ..........................
1 ..........................
2 ..................h.......
3 ..........................
4 ..........................
5 ..........................
6 ..........................
7 ...................t......
8 ..........................
9 ..........................
0 ..............r...........
1 ..........................
2 ..........................

Turn = 1.
  01234567890123456789012345
0 ..........................
1 ..........................
2 ..........................
3 ..........................
4 .........f................
5 ..........................
6 ..........................
7 t.........................
8 ..f.......................
9 ..........................
0 ..........................
1 ..........................
2 ........f.................
3 ..........................
4 ..........................
5 ..........................
6 ..........................
7 ..........................
8 ..........................
9 ..........................
0 ..........................
1 ..........................
2 .................h........
3 ..........................
4 ..........................
5 ..........................
6 ..........................
7 ...................t......
8 ..........................
9 ..........................
0 ..........................
1 ..............r...........
2 ..........................

Turn = 2.
  01234567890123456789012345
0 ..........................
1 ..........................
2 ..........................
3 ..........................
4 .........f................
5 ..........................
6 ..........................
7 t.........................
8 ..f.......................
9 ..........................
0 ..........................
1 ..........................
2 ........f.................
3 ..........................
4 ..........................
5 ..........................
6 ..........................
7 ..........................
8 ..........................
9 ..........................
0 ..........................
1 ..........................
2 ................h.........
3 ..........................
4 ..........................
5 ..........................
6 ..........................
7 ...................t......
8 ..........................
9 ..........................
0 ..........................
1 ..........................
2 ..............r...........

Turn = 3.
  01234567890123456789012345
0 ..........................
1 ..........................
2 ..........................
3 ..........................
4 .........f................
5 ..........................
6 ..........................
7 t.........................
8 ..f.......................
9 ..........................
0 ..........................
1 ..........................
2 ........f.................
3 ..........................
4 ..........................
5 ..........................
6 ..........................
7 ..........................
8 ..........................
9 ..........................
0 ..........................
1 ..........................
2 ...............h..........
3 ..........................
4 ..........................
5 ..........................
6 ..........................
7 ...................t......
8 ..........................
9 ..........................
0 ..........................
1 ..........................
2 ..............r...........

Turn = 4.
  01234567890123456789012345
0 ..........................
1 ..........................
2 ..........................
3 ..........................
4 .........f................
5 ..........................
6 ..........................
7 t.........................
8 ..f.......................
9 ..........................
0 ..........................
1 ..........................
2 ........f.................
3 ..........................
4 ..........................
5 ..........................
6 ..........................
7 ..........................
8 ..........................
9 ..........................
0 ..........................
1 ..........................
2 ..............h...........
3 ..........................
4 ..........................
5 ..........................
6 ..........................
7 ...................t......
8 ..........................
9 ..........................
0 ..........................
1 ..........................
2 .............r............

Turn = 5.
  01234567890123456789012345
0 ..........................
1 ..........................
2 ..........................
3 ..........................
4 .........f................
5 ..........................
6 ..........................
7 t.........................
8 ..f.......................
9 ..........................
0 ..........................
1 ..........................
2 ........f.................
3 ..........................
4 ..........................
5 ..........................
6 ..........................
7 ..........................
8 ..........................
9 ..........................
0 ..........................
1 ..........................
2 .............h............
3 ..........................
4 ..........................
5 ..........................
6 ..........................
7 ...................t......
8 ..........................
9 ..........................
0 ..........................
1 ..........................
2 ............r.............

Turn = 6.
  01234567890123456789012345
0 ..........................
1 ..........................
2 ..........................
3 ..........................
4 .........f................
5 ..........................
6 ..........................
7 t.........................
8 ..f.......................
9 ..........................
0 ..........................
1 ..........................
2 ........f.................
3 ..........................
4 ..........................
5 ..........................
6 ..........................
7 ..........................
8 ..........................
9 ..........................
0 ..........................
1 ..........................
2 ............h.............
3 ..........................
4 ..........................
5 ..........................
6 ..........................
7 ...................t......
8 ..........................
9 ..........................
0 ..........................
1 ..........................
2 ...........r..............

Turn = 7.
  01234567890123456789012345
0 ..........................
1 ..........................
2 ..........................
3 ..........................
4 .........f................
5 ..........................
6 ..........................
7 t.........................
8 ..f.......................
9 ..........................
0 ..........................
1 ..........................
2 ........f.................
3 ..........................
4 ..........................
5 ..........................
6 ..........................
7 ..........................
8 ..........................
9 ..........................
0 ..........................
1 ..........................
2 ...........h..............
3 ..........................
4 ..........................
5 ..........................
6 ..........................
7 ...................t......
8 ..........................
9 ..........................
0 ..........................
1 ..........................
2 ..........r...............

Turn = 8.
  01234567890123456789012345
0 ..........................
1 ..........................
2 ..........................
3 ..........................
4 .........f................
5 ..........................
6 ..........................
7 t.........................
8 ..f.......................
9 ..........................
0 ..........................
1 ..........................
2 ........f.................
3 ..........................
4 ..........................
5 ..........................
6 ..........................
7 ..........................
8 ..........................
9 ..........................
0 ..........................
1 ..........................
2 ..........h...............
3 ..........................
4 ..........................
5 ..........................
6 ..........................
7 ...................t......
8 ..........................
9 ..........................
0 ..........................
1 ..........................
2 .........r................

Turn = 9.
  01234567890123456789012345
0 ..........................
1 ..........................
2 ..........................
3 ..........................
4 .........f................
5 ..........................
6 ..........................
7 t.........................
8 ..f.......................
9 ..........................
0 ..........................
1 ..........................
2 ........f.................
3 ..........................
4 ..........................
5 ..........................
6 ..........................
7 ..........................
8 ..........................
9 ..........................
0 ..........................
1 ..........................
2 .........h................
3 ..........................
4 ..........................
5 ..........................
6 ..........................
7 ...................t......
8 ..........................
9 ..........................
0 ..........................
1 ..........................
2 ........r.................

Turn = 10.
  01234567890123456789012345
0 ..........................
1 ..........................
2 ..........................
3 ..........................
4 .........f................
5 ..........................
6 ..........................
7 t.........................
8 ..f.......................
9 ..........................
0 ..........................
1 ..........................
2 ........f.................
3 ..........................
4 ..........................
5 ..........................
6 ..........................
7 ..........................
8 ..........................
9 ..........................
0 ..........................
1 ..........................
2 ........h.................
3 ..........................
4 ..........................
5 ..........................
6 ..........................
7 ...................t......
8 ..........................
9 ..........................
0 ..........................
1 ..........................
2 .......r..................

Turn = 11.
  01234567890123456789012345
0 ..........................
1 ..........................
2 ..........................
3 ..........................
4 .........f................
5 ..........................
6 ..........................
7 t.........................
8 ..f.......................
9 ..........................
0 ..........................
1 ..........................
2 ........f.................
3 ..........................
4 ..........................
5 ..........................
6 ..........................
7 ..........................
8 ..........................
9 ..........................
0 ..........................
1 ..........................
2 .......h..................
3 ..........................
4 ..........................
5 ..........................
6 ..........................
7 ...................t......
8 ..........................
9 ..........................
0 ..........................
1 ..........................
2 ......r...................

Turn = 12.
  01234567890123456789012345
0 ..........................
1 ..........................
2 ..........................
3 ..........................
4 .........f................
5 ..........................
6 ..........................
7 t.........................
8 ..f.......................
9 ..........................
0 ..........................
1 ..........................
2 ........f.................
3 ..........................
4 ..........................
5 ..........................
6 ..........................
7 ..........................
8 ..........................
9 ..........................
0 ..........................
1 ..........................
2 ......h...................
3 ..........................
4 ..........................
5 ..........................
6 ..........................
7 ...................t......
8 ..........................
9 ..........................
0 ..........................
1 ..........................
2 .....r....................

Turn = 13.
  01234567890123456789012345
0 ..........................
1 ..........................
2 ..........................
3 ..........................
4 .........f................
5 ..........................
6 ..........................
7 t.........................
8 ..f.......................
9 ..........................
0 ..........................
1 ..........................
2 ........f.................
3 ..........................
4 ..........................
5 ..........................
6 ..........................
7 ..........................
8 ..........................
9 ..........................
0 ..........................
1 ..........................
2 .....h....................
3 ..........................
4 ..........................
5 ..........................
6 ..........................
7 ...................t......
8 ..........................
9 ..........................
0 ..........................
1 ..........................
2 ....r.....................

Turn = 14.
  01234567890123456789012345
0 ..........................
1 ..........................
2 ..........................
3 ..........................
4 .........f................
5 ..........................
6 ..........................
7 t.........................
8 ..f.......................
9 ..........................
0 ..........................
1 ..........................
2 ........f.................
3 ..........................
4 ..........................
5 ..........................
6 ..........................
7 ..........................
8 ..........................
9 ..........................
0 ..........................
1 ..........................
2 ....h.....................
3 ..........................
4 ..........................
5 ..........................
6 ..........................
7 ...................t......
8 ..........................
9 ..........................
0 ..........................
1 ..........................
2 ...r......................

Turn = 15.
  01234567890123456789012345
0 ..........................
1 ..........................
2 ..........................
3 ..........................
4 .........f................
5 ..........................
6 ..........................
7 t.........................
8 ..f.......................
9 ..........................
0 ..........................
1 ..........................
2 ........f.................
3 ..........................
4 ..........................
5 ..........................
6 ..........................
7 ..........................
8 ..........................
9 ..........................
0 ..........................
1 ..........................
2 ...h......................
3 ..........................
4 ..........................
5 ..........................
6 ..........................
7 ...................t......
8 ..........................
9 ..........................
0 ..........................
1 ..........................
2 ..r.......................

Turn = 16.
  01234567890123456789012345
0 ..........................
1 ..........................
2 ..........................
3 ..........................
4 .........f................
5 ..........................
6 ..........................
7 t.........................
8 ..f.......................
9 ..........................
0 ..........................
1 ..........................
2 ........f.................
3 ..........................
4 ..........................
5 ..........................
6 ..........................
7 ..........................
8 ..........................
9 ..........................
0 ..........................
1 ..........................
2 ..h.......................
3 ..........................
4 ..........................
5 ..........................
6 ..........................
7 ...................t......
8 ..........................
9 ..........................
0 ..........................
1 ..........................
2 .r........................

Turn = 17.
  01234567890123456789012345
0 ..........................
1 ..........................
2 ..........................
3 ..........................
4 .........f................
5 ..........................
6 ..........................
7 t.........................
8 ..f.......................
9 ..........................
0 ..........................
1 ..........................
2 ........f.................
3 ..........................
4 ..........................
5 ..........................
6 ..........................
7 ..........................
8 ..........................
9 ..........................
0 ..........................
1 ..........................
2 .h........................
3 ..........................
4 ..........................
5 ..........................
6 ..........................
7 ...................t......
8 ..........................
9 ..........................
0 ..........................
1 ..........................
2 r.........................

Turn = 18.
  01234567890123456789012345
0 ..........................
1 ..........................
2 ..........................
3 ..........................
4 .........f................
5 ..........................
6 ..........................
7 t.........................
8 ..f.......................
9 ..........................
0 ..........................
1 ..........................
2 ........f.................
3 ..........................
4 ..........................
5 ..........................
6 ..........................
7 ..........................
8 ..........................
9 ..........................
0 ..........................
1 ..........................
2 h.........................
3 ..........................
4 ..........................
5 ..........................
6 ..........................
7 ...................t......
8 ..........................
9 ..........................
0 ..........................
1 ..........................
2 r.........................

Turn = 19.
  01234567890123456789012345
0 ..........................
1 ..........................
2 ..........................
3 ..........................
4 .........f................
5 ..........................
6 ..........................
7 t.........................
8 ..f.......................
9 ..........................
0 ..........................
1 ..........................
2 ........f.................
3 ..........................
4 ..........................
5 ..........................
6 ..........................
7 ..........................
8 ..........................
9 ..........................
0 ..........................
1 ..........................
2 h.........................
3 ..........................
4 ..........................
5 ..........................
6 ..........................
7 ...................t......
8 ..........................
9 ..........................
0 ..........................
1 ..........................
2 r.........................

Turn = 20.
  01234567890123456789012345
0 ..........................
1 ..........................
2 ..........................
3 ..........................
4 .........f................
5 ..........................
6 ..........................
7 t.........................
8 ..f.......................
9 ..........................
0 ..........................
1 ..........................
2 ........f.................
3 ..........................
4 ..........................
5 ..........................
6 ..........................
7 ..........................
8 ..........................
9 ..........................
0 ..........................
1 ..........................
2 h.........................
3 ..........................
4 ..........................
5 ..........................
6 ..........................
7 ...................t......
8 ..........................
9 ..........................
0 ..........................
1 ..........................
2 r.........................

Turn = 21.
  01234567890123456789012345
0 ..........................
1 ..........................
2 ..........................
3 ..........................
4 .........f................
5 ..........................
6 ..........................
7 t.........................
8 ..f.......................
9 ..........................
0 ..........................
1 ..........................
2 ........f.................
3 ..........................
4 ..........................
5 ..........................
6 ..........................
7 ..........................
8 ..........................
9 ..........................
0 ..........................
1 ..........................
2 h.........................
3 ..........................
4 ..........................
5 ..........................
6 ..........................
7 ...................t......
8 ..........................
9 ..........................
0 ..........................
1 r.........................
2 ..........................

Turn = 22.
  01234567890123456789012345
0 ..........................
1 ..........................
2 ..........................
3 ..........................
4 .........f................
5 ..........................
6 ..........................
7 t.........................
8 ..f.......................
9 ..........................
0 ..........................
1 ..........................
2 ........f.................
3 ..........................
4 ..........................
5 ..........................
6 ..........................
7 ..........................
8 ..........................
9 ..........................
0 ..........................
1 ..........................
2 h.........................
3 ..........................
4 ..........................
5 ..........................
6 ..........................
7 ...................t......
8 ..........................
9 ..........................
0 r.........................
1 ..........................
2 ..........................

Turn = 23.
  01234567890123456789012345
0 ..........................
1 ..........................
2 ..........................
3 ..........................
4 .........f................
5 ..........................
6 ..........................
7 t.........................
8 ..f.......................
9 ..........................
0 ..........................
1 ..........................
2 ........f.................
3 ..........................
4 ..........................
5 ..........................
6 ..........................
7 ..........................
8 ..........................
9 ..........................
0 ..........................
1 ..........................
2 h.........................
3 ..........................
4 ..........................
5 ..........................
6 ..........................
7 ...................t......
8 ..........................
9 r.........................
0 ..........................
1 ..........................
2 ..........................

Turn = 24.
  01234567890123456789012345
0 ..........................
1 ..........................
2 ..........................
3 ..........................
4 .........f................
5 ..........................
6 ..........................
7 t.........................
8 ..f.......................
9 ..........................
0 ..........................
1 ..........................
2 ........f.................
3 ..........................
4 ..........................
5 ..........................
6 ..........................
7 ..........................
8 ..........................
9 ..........................
0 ..........................
1 ..........................
2 h.........................
3 ..........................
4 ..........................
5 ..........................
6 ..........................
7 ...................t......
8 r.........................
9 ..........................
0 ..........................
1 ..........................
2 ..........................

Turn = 25.
  01234567890123456789012345
0 ..........................
1 ..........................
2 ..........................
3 ..........................
4 .........f................
5 ..........................
6 ..........................
7 t.........................
8 ..f.......................
9 ..........................
0 ..........................
1 ..........................
2 ........f.................
3 ..........................
4 ..........................
5 ..........................
6 ..........................
7 ..........................
8 ..........................
9 ..........................
0 ..........................
1 ..........................
2 h.........................
3 ..........................
4 ..........................
5 ..........................
6 ..........................
7 r..................t......
8 ..........................
9 ..........................
0 ..........................
1 ..........................
2 ..........................

Turn = 26.
  01234567890123456789012345
0 ..........................
1 ..........................
2 ..........................
3 ..........................
4 .........f................
5 ..........................
6 ..........................
7 t.........................
8 ..f.......................
9 ..........................
0 ..........................
1 ..........................
2 ........f.................
3 ..........................
4 ..........................
5 ..........................
6 ..........................
7 ..........................
8 ..........................
9 ..........................
0 ..........................
1 ..........................
2 h.........................
3 ..........................
4 ..........................
5 ..........................
6 r.........................
7 ...................t......
8 ..........................
9 ..........................
0 ..........................
1 ..........................
2 ..........................

Turn = 27.
  01234567890123456789012345
0 ..........................
1 ..........................
2 ..........................
3 ..........................
4 .........f................
5 ..........................
6 ..........................
7 t.........................
8 ..f.......................
9 ..........................
0 ..........................
1 ..........................
2 ........f.................
3 ..........................
4 ..........................
5 ..........................
6 ..........................
7 ..........................
8 ..........................
9 ..........................
0 ..........................
1 ..........................
2 h.........................
3 ..........................
4 ..........................
5 r.........................
6 ..........................
7 ...................t......
8 ..........................
9 ..........................
0 ..........................
1 ..........................
2 ..........................

Turn = 28.
  01234567890123456789012345
0 ..........................
1 ..........................
2 ..........................
3 ..........................
4 .........f................
5 ..........................
6 ..........................
7 t.........................
8 ..f.......................
9 ..........................
0 ..........................
1 ..........................
2 ........f.................
3 ..........................
4 ..........................
5 ..........................
6 ..........................
7 ..........................
8 ..........................
9 ..........................
0 ..........................
1 ..........................
2 h.........................
3 ..........................
4 r.........................
5 ..........................
6 ..........................
7 ...................t......
8 ..........................
9 ..........................
0 ..........................
1 ..........................
2 ..........................

Turn = 29.
  01234567890123456789012345
0 ..........................
1 ..........................
2 ..........................
3 ..........................
4 .........f................
5 ..........................
6 ..........................
7 t.........................
8 ..f.......................
9 ..........................
0 ..........................
1 ..........................
2 ........f.................
3 ..........................
4 ..........................
5 ..........................
6 ..........................
7 ..........................
8 ..........................
9 ..........................
0 ..........................
1 ..........................
2 h.........................
3 r.........................
4 ..........................
5 ..........................
6 ..........................
7 ...................t......
8 ..........................
9 ..........................
0 ..........................
1 ..........................
2 ..........................

Turn = 30.
  01234567890123456789012345
0 ..........................
1 ..........................
2 ..........................
3 ..........................
4 .........f................
5 ..........................
6 ..........................
7 t.........................
8 ..f.......................
9 ..........................
0 ..........................
1 ..........................
2 ........f.................
3 ..........................
4 ..........................
5 ..........................
6 ..........................
7 ..........................
8 ..........................
9 ..........................
0 ..........................
1 ..........................
2 r.........................
3 r.........................
4 ..........................
5 ..........................
6 ..........................
7 ...................t......
8 ..........................
9 ..........................
0 ..........................
1 ..........................
2 ..........................

Turn = 31.
  01234567890123456789012345
0 ..........................
1 ..........................
2 ..........................
3 ..........................
4 .........f................
5 ..........................
6 ..........................
7 t.........................
8 ..f.......................
9 ..........................
0 ..........................
1 ..........................
2 ........f.................
3 ..........................
4 ..........................
5 ..........................
6 ..........................
7 ..........................
8 ..........................
9 ..........................
0 ..........................
1 ..........................
2 r.........................
3 r.........................
4 ..........................
5 ..........................
6 ..........................
7 ...................t......
8 ..........................
9 ..........................
0 ..........................
1 ..........................
2 ..........................

Turn = 32.
  01234567890123456789012345
0 ..........................
1 ..........................
2 ..........................
3 ..........................
4 .........f................
5 ..........................
6 ..........................
7 t.........................
8 ..f.......................
9 ..........................
0 ..........................
1 ..........................
2 ........f.................
3 ..........................
4 ..........................
5 ..........................
6 ..........................
7 ..........................
8 ..........................
9 ..........................
0 ..........................
1 r.........................
2 ..........................
3 .r........................
4 ..........................
5 ..........................
6 ..........................
7 ...................t......
8 ..........................
9 ..........................
0 ..........................
1 ..........................
2 ..........................

Turn = 33.
  01234567890123456789012345
0 ..........................
1 ..........................
2 ..........................
3 ..........................
4 .........f................
5 ..........................
6 ..........................
7 t.........................
8 ..f.......................
9 ..........................
0 ..........................
1 ..........................
2 ........f.................
3 ..........................
4 ..........................
5 ..........................
6 ..........................
7 ..........................
8 ..........................
9 ..........................
0 r.........................
1 ..........................
2 ..........................
3 ..r.......................
4 ..........................
5 ..........................
6 ..........................
7 ...................t......
8 ..........................
9 ..........................
0 ..........................
1 ..........................
2 ..........................

Turn = 34.
  01234567890123456789012345
0 ..........................
1 ..........................
2 ..........................
3 ..........................
4 .........f................
5 ..........................
6 ..........................
7 t.........................
8 ..f.......................
9 ..........................
0 ..........................
1 ..........................
2 ........f.................
3 ..........................
4 ..........................
5 ..........................
6 ..........................
7 ..........................
8 ..........................
9 r.........................
0 ..........................
1 ..........................
2 ..........................
3 ...r......................
4 ..........................
5 ..........................
6 ..........................
7 ...................t......
8 ..........................
9 ..........................
0 ..........................
1 ..........................
2 ..........................

Turn = 35.
  01234567890123456789012345
0 ..........................
1 ..........................
2 ..........................
3 ..........................
4 .........f................
5 ..........................
6 ..........................
7 t.........................
8 ..f.......................
9 ..........................
0 ..........................
1 ..........................
2 ........f.................
3 ..........................
4 ..........................
5 ..........................
6 ..........................
7 ..........................
8 r.........................
9 ..........................
0 ..........................
1 ..........................
2 ..........................
3 ....r.....................
4 ..........................
5 ..........................
6 ..........................
7 ...................t......
8 ..........................
9 ..........................
0 ..........................
1 ..........................
2 ..........................

Turn = 36.
  01234567890123456789012345
0 ..........................
1 ..........................
2 ..........................
3 ..........................
4 .........f................
5 ..........................
6 ..........................
7 t.........................
8 ..f.......................
9 ..........................
0 ..........................
1 ..........................
2 ........f.................
3 ..........................
4 ..........................
5 ..........................
6 ..........................
7 r.........................
8 ..........................
9 ..........................
0 ..........................
1 ..........................
2 ..........................
3 .....r....................
4 ..........................
5 ..........................
6 ..........................
7 ...................t......
8 ..........................
9 ..........................
0 ..........................
1 ..........................
2 ..........................

Turn = 37.
  01234567890123456789012345
0 ..........................
1 ..........................
2 ..........................
3 ..........................
4 .........f................
5 ..........................
6 ..........................
7 t.........................
8 ..f.......................
9 ..........................
0 ..........................
1 ..........................
2 ........f.................
3 ..........................
4 ..........................
5 ..........................
6 r.........................
7 ..........................
8 ..........................
9 ..........................
0 ..........................
1 ..........................
2 ..........................
3 ......r...................
4 ..........................
5 ..........................
6 ..........................
7 ...................t......
8 ..........................
9 ..........................
0 ..........................
1 ..........................
2 ..........................

*** Darwin 21x24 ***
Turn = 0.
  012345678901234567890123
0 ........................
1 ................f.......
2 ...............h........
3 ...f....................
4 ........................
5 t.......................
6 .......h................
7 ...................tf..f
8 .......f................
9 .............r..........
0 ....h..................h
1 .f.......f..............
2 ......t..h..............
3 ....r.t.................
4 ......................f.
5 ........................
6 ........................
7 ...r......h.......h.....
8 ..........h.............
9 ..r.....................
0 ............f...........

Turn = 2.
  012345678901234567890123
0 ........................
1 ................f.......
2 ........................
3 ...f....................
4 ...............h........
5 t.......................
6 ........................
7 .......h.....r.....tf..f
8 .......f................
9 ........................
0 ........................
1 .f.......f..............
2 ....h.rh...............h
3 .....rr.................
4 ......................f.
5 ........................
6 ........................
7 .....r......h...h.......
8 ........h...............
9 ........................
0 ..r.........f...........

Turn = 4.
  012345678901234567890123
0 ........................
1 ................f.......
2 ........................
3 ...f....................
4 ........................
5 t............r..........
6 ...............h........
7 .......h...........tt..f
8 .......f................
9 ........................
0 ........................
1 .f.......f..............
2 ......rr................
3 .......r................
4 ....hr................fh
5 ........................
6 ........................
7 .......r......hh........
8 ......h.................
9 ........................
0 r...........f...........

*** Darwin 47x28 ***
Turn = 0.
  0123456789012345678901234567
0 ..............f...r....r...f
1 ...........h...t...f..h.....
2 ................f....f...f..
3 .......f...............f.r..
4 h......h..........h....r....
5 r.....f......f..............
6 ......t............f........
7 .r..........................
8 ......................h.....
9 .........h..................
0 .t.......tt......h..........
1 ............................
2 .h.....t...........r........
3 ......h.......h...r.........
4 ..r......r..h.r......r......
5 ..............rr.r.......f..
6 .....................r...t..
7 ..f.......f.f...............
8 ..t..tt..h....f.............
9 .....r......................
0 ....h.......t.......f......r
1 ...........f....rt.f........
2 ................h......rh.h.
3 ................h......r..f.
4 ..t........f................
5 .................t..........
6 ..................r.........
7 ...........................r
8 .h.........t................
9 ..t.........t...............
0 ....t.....................fr
1 ......f......t.t............
2 ...f..............f...rff...
3 .........f..r.fh............
4 ..........t.t....rr.........
5 ...........r........t.......
6 .t.....f.....r.......f.....h
7 ...h....h...............r...
8 ...........t..........h.....
9 .f............rh............
0 .h....r.....................
1 ....h..h...........h...f..h.
2 .....t.......h..............
3 ............................
4 ..h......fh.................
5 ..h.........r...............
6 .........................t..

Turn = 73.
  0123456789012345678901234567
0 ..rr.r.r.r...r............r.
1 .r.......r..................
2 ...r.r..r.................r.
3 .........r.................r
4 ..........r.................
5 ...r...r..r.................
6 rrr.r......................r
7 r.r.......r.................
8 .rr.........................
9 ....r.tt..tt................
0 .........ttt................
1 ........r...................
2 ..............r.............
3 r.........r..r...r..........
4 ..........r......r.........r
5 ........r.........r........r
6 ................r...........
7 ......................r....r
8 ..............r.............
9 ....t.........r.r...........
0 .............rr............r
1 ...........................r
2 ........r..................r
3 ..........................r.
4 .................t..........
5 .................t......rr..
6 ............................
7 ............................
8 ...........................r
9 ...........................r
0 ............................
1 rr.r..........t.r...........
2 rrr.r...................r.rr
3 r........ttr..............r.
4 ..r.......rr.r............r.
5 .rr......r.........r........
6 .t......r.........r.........
7 .t..........rr..........r..r
8 .t....r.................r...
9 r....r..................r...
0 ............................
1 r...r.....r.......rr........
2 .......r.r..................
3 ..rr........................
4 r..r................r.....r.
5 ....r..........r...r.....r..
6 .......r........rr..........

*** Darwin 14x9 ***
Turn = 0.
  012345678
0 ...r.....
1 .......f.
2 .........
3 ...r....t
4 ..rr....h
5 ..r......
6 f....f..r
7 ..h.....r
8 ......f..
9 .....t...
0 r.r......
1 .........
2 ........r
3 ..h.....h

Turn = 8.
  012345678
0 .........
1 .......r.
2 ......rr.
3 r.....r..
4 r....rr..
5 .........
6 f....f...
7 .....r...
8 ....r.f..
9 .........
0 r.......r
1 ..r.....r
2 .......r.
3 .......rr

Turn = 16.
  012345678
0 ....rr...
1 .........
2 r........
3 r......r.
4 r........
5 .........
6 .r.......
7 r.......r
8 ......f.r
9 ...r....r
0 r...r....
1 r........
2 r........
3 ..rr....r

*** Darwin 15x7 ***
Turn = 0.
  0123456
0 ...f...
1 ...f...
2 .h.....
3 ..t..h.
4 ..h..t.
5 .......
6 .......
7 ..f....
8 ....f.t
9 .......
0 ......r
1 ..r...h
2 .....f.
3 ....f..
4 .......

Turn = 10.
  0123456
0 ...f...
1 ...f...
2 .......
3 .tt..tt
4 .....th
5 .......
6 ..h....
7 ..f....
8 r......
9 .......
0 .......
1 .......
2 ....rf.
3 ...r...
4 .....r.

Turn = 20.
  0123456
0 r..f...
1 ...f...
2 .......
3 .tt..tt
4 .....tt
5 .......
6 ..h....
7 ..f....
8 .......
9 r......
0 .......
1 r......
2 .....f.
3 .......
4 .r.....

Turn = 30.
  0123456
0 ...f...
1 r..f...
2 .......
3 .tt..tt
4 ....ttt
5 .....r.
6 ..h....
7 ..f....
8 .......
9 .......
0 ......r
1 .......
2 .....f.
3 .......
4 .......

*** Darwin 17x18 ***
Turn = 0.
  012345678901234567
0 ............h.....
1 .................f
2 ........r.........
3 t....t............
4 t...tr..h.........
5 .t................
6 ..ff..............
7 ..................
8 ...t.......fr...h.
9 ...r....t.........
0 .....h............
1 r..........h....r.
2 .......h.h..ft....
3 ..........f......h
4 ....t....r....f...
5 ....t..........f..
6 .....r..h.......f.

Turn = 18.
  012345678901234567
0 h.........r.......
1 .................f
2 ..................
3 t....t............
4 t...tt............
5 .t......rr........
6 ..ff..............
7 .................r
8 ...t.............r
9 .................r
0 ...............rr.
1 r.................
2 .............t...r
3 ................r.
4 ....tt........fr..
5 ....tttr.........r
6 ....rrt.........r.

*** Darwin 15x45 ***
Turn = 0.
  012345678901234567890123456789012345678901234
0 ...rt..h......f.t..............t....f........
1 ........r..............................f.....
2 ...........................t.......t.f.......
3 ......f.......................ff.............
4 ................r...t........................
5 .............................................
6 ..........r..h.....tr...............t........
7 ........f...t....t.t.......h................f
8 ......h...........r..r..h....................
9 h...............t.t................t..f..ft..
0 .r............r.............h.t..h......hh...
1 ......t............f.........................
2 rf......t............ht...................r.h
3 .........h.........................f.........
4 ......t...........r....f......h.........t....

Turn = 1.
  012345678901234567890123456789012345678901234
0 ..r.t...h.....f.t..............t....f........
1 .......................................f.....
2 ........r..................t.......t.f.......
3 ......f.......................ff.............
4 ....................t........................
5 ................r............................
6 ...........r.......t................t........
7 ......h.f...th...trtrr......h...............f
8 .......................h.....................
9 h.............r.t.t.........h......t..f..tt..
0 ..............................t.........h....
1 .r....t............f.h...........h.......hr.h
2 rr......t.............t......................
3 ..........h.......r................f.........
4 ......t................f......h.........t....

*** Darwin 32x46 ***
Turn = 0.
  0123456789012345678901234567890123456789012345
0 ............h................................f
1 .............................................t
2 ..............................................
3 .....................................t........
4 ...........................r.....r............
5 ...............t......f............h...r......
6 ...............................r..............
7 ........h...............h....r...r............
8 .....h.....ht....................t............
9 ..............................................
0 ................r..............t.r....t......h
1 ..fh.f.....r......r....f.............r.......t
2 ..............................................
3 ...................................h..........
4 .....r...........................f............
5 ......................r........h..............
6 ......r...................f...................
7 ................t............................f
8 .........................f................t...
9 .....................t......................r.
0 t................................r...r........
1 ...r..................h.........f.............
2 ............f.................................
3 ................f....................r..h.....
4 ...h.......................t..................
5 .h..................................f.........
6 ..........h...................................
7 ..............................................
8 ......t.....................r.................
9 ........t........................h............
0 ......h.................r......f.f.f..........
1 ...................t......t...................

Turn = 15.
  0123456789012345678901234567890123456789012345
0 ........r................rrr.r...............t
1 .......................r.....................t
2 ..............................................
3 .....................................t........
4 ..............................................
5 ...............t......f....r.........r.......r
6 ...r...........r..............................
7 h............................................r
8 h...........t................................r
9 ...h..........................................
0 .....r.........................t......t......t
1 ..f.hr....h............rr....................t
2 ......r.......................................
3 ....................r.........................
4 .................................f............
5 ..............................................
6 .........r....................................
7 ........................r.r..................f
8 .........................f................t...
9 .....................t........................
0 t......................................r......
1 ...............................hf.............
2 ............f.................................
3 ................f.........r.rt................
4 ............................r.................
5 h......................r..rr........f.........
6 ..............................................
7 ..............................................
8 ........t...................r.................
9 .....r..t.....................................
0 ......r..........................f.f..........
1 ......h............t......t........r.r....r...

*** Darwin 4x23 ***
Turn = 0.
  01234567890123456789012
0 .hrf...t.r.h..tt...f...
1 r....f.tt.rt..f..t.hr.f
2 .ttrr....f.h.t..h.tf.tt
3 .r.rrh.h.t.r....r....h.

Turn = 20.
  01234567890123456789012
0 .r....t.rttt..tttt....t
1 ......tttttt..t..t....t
2 ttt......t...t....tt.tt
3 tttt..rr.ttt.......ttt.

*** Darwin 18x22 ***
Turn = 0.
  0123456789012345678901
0 ..........r...........
1 ................f.....
2 ........h.............
3 ...............h......
4 ..........r.....h.....
5 .........f............
6 ......................
7 .th....rh.......h...f.
8 ..........t.r..r......
9 ......................
0 .r............r.......
1 ............t....t....
2 ..f.....tf............
3 ...h..................
4 ..............f.......
5 ......................
6 ..........h.....t.....
7 ......................

Turn = 64.
  0123456789012345678901
0 .r..........r........r
1 r...............f.....
2 ....................rr
3 .....................r
4 ......................
5 .........f............
6 ......................
7 tt........t...........
8 ..........t..........r
9 ......................
0 ......................
1 ..h.............tt....
2 ..f.....tt............
3 ........t.............
4 ......................
5 ................t.....
6 ................t.....
7 ..........h.....ttt...

*** Darwin 3x40 ***
Turn = 0.
  0123456789012345678901234567890123456789
0 th..hftrf...t.....h..t.th..f...h.h.....f
1 f.r..tf..tt.hr..trfhrtth.t.r.f..hr...t..
2 ...ffhf...f.rff.rr.rfrr.tfr....t.h..htt.

Turn = 32.
  0123456789012345678901234567890123456789
0 ..r.rtttttttttt.........ttttt........t..
1 ...rttt..ttt.ttttt.....tttt..........tt.
2 ..rrttt....ttttttttt...ttt....ttttt..tt.

*** Darwin 2x28 ***
Turn = 0.
  0123456789012345678901234567
0 frftt...h.h.t.tr.t.hfrftttrf
1 .h.fr.rfhhthfhfttt..thf.hfh.

Turn = 33.
  0123456789012345678901234567
0 rr.rrrr..rrrr...tt.ttttttttt
1 ..r.r.rrrrrrrrtttt..ttt.ttt.

*** Darwin 9x23 ***
Turn = 0.
  01234567890123456789012
0 f.r..f..r.....t......r.
1 t..f.hhffh...f.hh...r.f
2 ......ft.r...h....rh..t
3 h.t.......f......r.r...
4 ........r....f....t....
5 ..ft..r..........ht....
6 ...t......tth.r.t...t.t
7 .t....fh.......h...t...
8 r....ff...r........f...

Turn = 28.
  01234567890123456789012
0 t.r.r..r..r....r.......
1 r....r..rr.............
2 r.rr...rtrtt......r....
3 ........rr.....r.......
4 rr...r.r.r.....r.r.....
5 ..ttt...........r.rrt..
6 r.t..............r..rr.
7 tttt...........tt.ttt..
8 ..tt.............ttt..r

