*** Darwin 20x20 ***
Turn = 0.
  01234567890123456789
0 f.r.................
1 .rrrtt..............
2 ....................
3 ...hh...............
4 ...hh...............
5 ....................
6 .t......r...........
7 .......f............
8 ....................
9 ....................
0 ....................
1 ....................
2 ....................
3 ....................
4 ....................
5 ....................
6 ....................
7 ....................
8 ....................
9 ....................

Turn = 1.
  01234567890123456789
0 fr.r................
1 ..r.tt..............
2 .r.h................
3 .....h..............
4 ..h.................
5 ....h...............
6 .t..................
7 .......fr...........
8 ....................
9 ....................
0 ....................
1 ....................
2 ....................
3 ....................
4 ....................
5 ....................
6 ....................
7 ....................
8 ....................
9 ....................

Turn = 2.
  01234567890123456789
0 rr.r................
1 ...htt..............
2 ..r.................
3 .r....h.............
4 .h..................
5 ....................
6 .t..h...............
7 .......f............
8 ........r...........
9 ....................
0 ....................
1 ....................
2 ....................
3 ....................
4 ....................
5 ....................
6 ....................
7 ....................
8 ....................
9 ....................

Turn = 3.
  01234567890123456789
0 rrrh................
1 ....tt..............
2 ....................
3 .rr....h............
4 r...................
5 ....................
6 .t..................
7 ....h..f............
8 ....................
9 ........r...........
0 ....................
1 ....................
2 ....................
3 ....................
4 ....................
5 ....................
6 ....................
7 ....................
8 ....................
9 ....................

Turn = 4.
  01234567890123456789
0 rrrh................
1 ....tt..............
2 ....................
3 ........h...........
4 rrr.................
5 ....................
6 .t..................
7 .......f............
8 ....h...............
9 ....................
0 ........r...........
1 ....................
2 ....................
3 ....................
4 ....................
5 ....................
6 ....................
7 ....................
8 ....................
9 ....................

Turn = 5.
  01234567890123456789
0 rr.h................
1 ..r.tt..............
2 ....................
3 .........h..........
4 ....................
5 rrr.................
6 .t..................
7 .......f............
8 ....................
9 ....h...............
0 ....................
1 ........r...........
2 ....................
3 ....................
4 ....................
5 ....................
6 ....................
7 ....................
8 ....................
9 ....................

*** Darwin 10x10 ***
Turn = 0.
  0123456789
0 t.........
1 ....r.....
2 ..h.......
3 ..........
4 ..........
5 ........t.
6 ..........
7 ..........
8 ..........
9 ..........

Turn = 1.
  0123456789
0 t...r.....
1 ..........
2 ...h......
3 ..........
4 ..........
5 ........t.
6 ..........
7 ..........
8 ..........
9 ..........

Turn = 2.
  0123456789
0 t...r.....
1 ..........
2 ....h.....
3 ..........
4 ..........
5 ........t.
6 ..........
7 ..........
8 ..........
9 ..........

Turn = 3.
  0123456789
0 t....r....
1 ..........
2 .....h....
3 ..........
4 ..........
5 ........t.
6 ..........
7 ..........
8 ..........
9 ..........

Turn = 4.
  0123456789
0 t.....r...
1 ..........
2 ......h...
3 ..........
4 ..........
5 ........t.
6 ..........
7 ..........
8 ..........
9 ..........

Turn = 5.
  0123456789
0 t......r..
1 ..........
2 .......h..
3 ..........
4 ..........
5 ........t.
6 ..........
7 ..........
8 ..........
9 ..........

*** Darwin 24x24 ***
Turn = 0.
  012345678901234567890123
0 ..r.....................
1 .rrrtt..................
2 ........................
3 f..hh...................
4 ...hh...................
5 ........................
6 .t......r...............
7 .......f................
8 ........................
9 ........................
0 ........................
1 ........................
2 ........................
3 ........................
4 ........................
5 ........................
6 ........................
7 ........................
8 ........................
9 ........................
0 ........................
1 ........................
2 ........................
3 ........................

Turn = 1.
  012345678901234567890123
0 .r.r....................
1 ..r.tt..................
2 .r.hh...................
3 f...h...................
4 ..h.....................
5 ........................
6 .t......................
7 .......fr...............
8 ........................
9 ........................
0 ........................
1 ........................
2 ........................
3 ........................
4 ........................
5 ........................
6 ........................
7 ........................
8 ........................
9 ........................
0 ........................
1 ........................
2 ........................
3 ........................

Turn = 2.
  012345678901234567890123
0 r..r....................
1 ...htt..................
2 ..r.h...................
3 fr..h...................
4 .h......................
5 ........................
6 .t......................
7 .......f................
8 ........r...............
9 ........................
0 ........................
1 ........................
2 ........................
3 ........................
4 ........................
5 ........................
6 ........................
7 ........................
8 ........................
9 ........................
0 ........................
1 ........................
2 ........................
3 ........................

Turn = 3.
  012345678901234567890123
0 r.rh....................
1 ....tt..................
2 ....h...................
3 frr.h...................
4 r.......................
5 ........................
6 .t......................
7 .......f................
8 ........................
9 ........r...............
0 ........................
1 ........................
2 ........................
3 ........................
4 ........................
5 ........................
6 ........................
7 ........................
8 ........................
9 ........................
0 ........................
1 ........................
2 ........................
3 ........................

Turn = 4.
  012345678901234567890123
0 rr.h....................
1 ....tt..................
2 ....t...................
3 f...h...................
4 rrr.....................
5 ........................
6 .t......................
7 .......f................
8 ........................
9 ........................
0 ........r...............
1 ........................
2 ........................
3 ........................
4 ........................
5 ........................
6 ........................
7 ........................
8 ........................
9 ........................
0 ........................
1 ........................
2 ........................
3 ........................

Turn = 5.
  012345678901234567890123
0 rr.h....................
1 ....tt..................
2 ....t...................
3 r...h...................
4 r.......................
5 .rr.....................
6 .t......................
7 .......f................
8 ........................
9 ........................
0 ........................
1 ........r...............
2 ........................
3 ........................
4 ........................
5 ........................
6 ........................
7 ........................
8 ........................
9 ........................
0 ........................
1 ........................
2 ........................
3 ........................

*** Darwin 21x21 ***
Turn = 0.
  012345678901234567890
0 f.r..................
1 .rrrtt...............
2 .....................
3 ...hh................
4 ...hh................
5 .....................
6 .t......r............
7 .......f.............
8 .....................
9 .....................
0 .....................
1 .....................
2 .....................
3 .....................
4 .....................
5 .....................
6 .....................
7 .....................
8 .....................
9 .....................
0 .....................

Turn = 1.
  012345678901234567890
0 fr.r.................
1 ..r.tt...............
2 .r.h.................
3 .....h...............
4 ..h..................
5 ....h................
6 .t...................
7 .......fr............
8 .....................
9 .....................
0 .....................
1 .....................
2 .....................
3 .....................
4 .....................
5 .....................
6 .....................
7 .....................
8 .....................
9 .....................
0 .....................

Turn = 2.
  012345678901234567890
0 rr.r.................
1 ...htt...............
2 ..r..................
3 .r....h..............
4 .h...................
5 .....................
6 .t..h................
7 .......f.............
8 ........r............
9 .....................
0 .....................
1 .....................
2 .....................
3 .....................
4 .....................
5 .....................
6 .....................
7 .....................
8 .....................
9 .....................
0 .....................

Turn = 3.
  012345678901234567890
0 rrrh.................
1 ....tt...............
2 .....................
3 .rr....h.............
4 r....................
5 .....................
6 .t...................
7 ....h..f.............
8 .....................
9 ........r............
0 .....................
1 .....................
2 .....................
3 .....................
4 .....................
5 .....................
6 .....................
7 .....................
8 .....................
9 .....................
0 .....................

Turn = 4.
  012345678901234567890
0 rrrh.................
1 ....tt...............
2 .....................
3 ........h............
4 rrr..................
5 .....................
6 .t...................
7 .......f.............
8 ....h................
9 .....................
0 ........r............
1 .....................
2 .....................
3 .....................
4 .....................
5 .....................
6 .....................
7 .....................
8 .....................
9 .....................
0 .....................

Turn = 5.
  012345678901234567890
0 rr.h.................
1 ..r.tt...............
2 .....................
3 .........h...........
4 .....................
5 rrr..................
6 .t...................
7 .......f.............
8 .....................
9 ....h................
0 .....................
1 ........r............
2 .....................
3 .....................
4 .....................
5 .....................
6 .....................
7 .....................
8 .....................
9 .....................
0 .....................

*** Darwin 20x20 ***
Turn = 0.
  01234567890123456789
0 f.r.................
1 .rrrtt..............
2 ....................
3 ...hh...............
4 ...hh...............
5 ....................
6 .t......r...........
7 .......f............
8 ....................
9 ....................
0 ....................
1 ....................
2 ....................
3 ....................
4 ....................
5 ....................
6 ....................
7 ....................
8 ....................
9 ....................

Turn = 1.
  01234567890123456789
0 fr..................
1 ..r.tt..............
2 .r.r................
3 ...hh...............
4 ....................
5 ...hh...............
6 .t..................
7 .......fr...........
8 ....................
9 ....................
0 ....................
1 ....................
2 ....................
3 ....................
4 ....................
5 ....................
6 ....................
7 ....................
8 ....................
9 ....................

Turn = 2.
  01234567890123456789
0 rr..................
1 ....tt..............
2 ..rr................
3 .r..................
4 ...rh...............
5 ....................
6 .t.hh...............
7 .......f............
8 ........r...........
9 ....................
0 ....................
1 ....................
2 ....................
3 ....................
4 ....................
5 ....................
6 ....................
7 ....................
8 ....................
9 ....................

Turn = 3.
  01234567890123456789
0 rr..................
1 ....tt..............
2 ....................
3 ..rr................
4 .r..................
5 ...rh...............
6 .t..................
7 ...hh..f............
8 ....................
9 ........r...........
0 ....................
1 ....................
2 ....................
3 ....................
4 ....................
5 ....................
6 ....................
7 ....................
8 ....................
9 ....................

Turn = 4.
  01234567890123456789
0 rr..................
1 ....tt..............
2 ....................
3 ....................
4 ..rr................
5 .t..................
6 .t.rh...............
7 .......f............
8 ...hh...............
9 ....................
0 ........r...........
1 ....................
2 ....................
3 ....................
4 ....................
5 ....................
6 ....................
7 ....................
8 ....................
9 ....................

Turn = 5.
  01234567890123456789
0 r.r.................
1 ....tt..............
2 ....................
3 ....................
4 ....................
5 .trr................
6 .t..................
7 ...rh..f............
8 ....................
9 ...hh...............
0 ....................
1 ........r...........
2 ....................
3 ....................
4 ....................
5 ....................
6 ....................
7 ....................
8 ....................
9 ....................

*** Darwin 30x30 ***
Turn = 0.
  012345678901234567890123456789
0 f.r...........................
1 .rrrtt........................
2 ..............................
3 ...hh.........................
4 ...hh.........................
5 ..............................
6 .t......r.....................
7 .......f......................
8 ..............................
9 ..............................
0 ..............................
1 ..............................
2 ..............................
3 ..............................
4 ..............................
5 ..............................
6 ..............................
7 ..............................
8 ..............................
9 ..............................
0 ..............................
1 ..............................
2 ..............................
3 ..............................
4 ..............................
5 ..............................
6 ..............................
7 ..............................
8 ..............................
9 ..............................

Turn = 1.
  012345678901234567890123456789
0 fr.r..........................
1 ..r.tt........................
2 .r.h..........................
3 .....h........................
4 ..h...........................
5 ....h.........................
6 .t............................
7 .......fr.....................
8 ..............................
9 ..............................
0 ..............................
1 ..............................
2 ..............................
3 ..............................
4 ..............................
5 ..............................
6 ..............................
7 ..............................
8 ..............................
9 ..............................
0 ..............................
1 ..............................
2 ..............................
3 ..............................
4 ..............................
5 ..............................
6 ..............................
7 ..............................
8 ..............................
9 ..............................

Turn = 2.
  012345678901234567890123456789
0 rr.r..........................
1 ...htt........................
2 ..r...........................
3 .r....h.......................
4 .h............................
5 ..............................
6 .t..h.........................
7 .......f......................
8 ........r.....................
9 ..............................
0 ..............................
1 ..............................
2 ..............................
3 ..............................
4 ..............................
5 ..............................
6 ..............................
7 ..............................
8 ..............................
9 ..............................
0 ..............................
1 ..............................
2 ..............................
3 ..............................
4 ..............................
5 ..............................
6 ..............................
7 ..............................
8 ..............................
9 ..............................

Turn = 3.
  012345678901234567890123456789
0 rrrh..........................
1 ....tt........................
2 ..............................
3 .rr....h......................
4 r.............................
5 ..............................
6 .t............................
7 ....h..f......................
8 ..............................
9 ........r.....................
0 ..............................
1 ..............................
2 ..............................
3 ..............................
4 ..............................
5 ..............................
6 ..............................
7 ..............................
8 ..............................
9 ..............................
0 ..............................
1 ..............................
2 ..............................
3 ..............................
4 ..............................
5 ..............................
6 ..............................
7 ..............................
8 ..............................
9 ..............................

Turn = 4.
  012345678901234567890123456789
0 rrrh..........................
1 ....tt........................
2 ..............................
3 ........h.....................
4 rrr...........................
5 ..............................
6 .t............................
7 .......f......................
8 ....h.........................
9 ..............................
0 ........r.....................
1 ..............................
2 ..............................
3 ..............................
4 ..............................
5 ..............................
6 ..............................
7 ..............................
8 ..............................
9 ..............................
0 ..............................
1 ..............................
2 ..............................
3 ..............................
4 ..............................
5 ..............................
6 ..............................
7 ..............................
8 ..............................
9 ..............................

Turn = 5.
  012345678901234567890123456789
0 rr.h..........................
1 ..r.tt........................
2 ..............................
3 .........h....................
4 ..............................
5 rrr...........................
6 .t............................
7 .......f......................
8 ..............................
9 ....h.........................
0 ..............................
1 ........r.....................
2 ..............................
3 ..............................
4 ..............................
5 ..............................
6 ..............................
7 ..............................
8 ..............................
9 ..............................
0 ..............................
1 ..............................
2 ..............................
3 ..............................
4 ..............................
5 ..............................
6 ..............................
7 ..............................
8 ..............................
9 ..............................

*** Darwin 20x20 ***
Turn = 0.
  01234567890123456789
0 r.r.................
1 .rrrtt..............
2 ....................
3 ...rr...............
4 ...hh...............
5 ....................
6 .t......r...........
7 .......f............
8 ....................
9 ....................
0 ....................
1 ....................
2 ....................
3 ....................
4 ....................
5 ....................
6 ....................
7 ....................
8 ....................
9 ....................

Turn = 1.
  01234567890123456789
0 .rrr................
1 ..r.tt..............
2 .r.r................
3 .....r..............
4 ..h.................
5 ....h...............
6 .t..................
7 .......fr...........
8 ....................
9 ....................
0 ....................
1 ....................
2 ....................
3 ....................
4 ....................
5 ....................
6 ....................
7 ....................
8 ....................
9 ....................

Turn = 2.
  01234567890123456789
0 .rrr................
1 ..rrtt..............
2 ....................
3 .r....r.............
4 .h..................
5 ....................
6 .t..h...............
7 .......f............
8 ........r...........
9 ....................
0 ....................
1 ....................
2 ....................
3 ....................
4 ....................
5 ....................
6 ....................
7 ....................
8 ....................
9 ....................

Turn = 3.
  01234567890123456789
0 ..rrr...............
1 .rr.tt..............
2 ....................
3 .r.....r............
4 r...................
5 ....................
6 .t..................
7 ....h..f............
8 ....................
9 ........r...........
0 ....................
1 ....................
2 ....................
3 ....................
4 ....................
5 ....................
6 ....................
7 ....................
8 ....................
9 ....................

Turn = 4.
  01234567890123456789
0 ..rr.r..............
1 ..r.tt..............
2 .r..................
3 ........r...........
4 rr..................
5 ....................
6 .t..................
7 .......f............
8 ....h...............
9 ....................
0 ........r...........
1 ....................
2 ....................
3 ....................
4 ....................
5 ....................
6 ....................
7 ....................
8 ....................
9 ....................

Turn = 5.
  01234567890123456789
0 ..r.r.r.............
1 .r..tt..............
2 ....................
3 rr.......r..........
4 ....................
5 .r..................
6 .t..................
7 .......f............
8 ....................
9 ....h...............
0 ....................
1 ........r...........
2 ....................
3 ....................
4 ....................
5 ....................
6 ....................
7 ....................
8 ....................
9 ....................

*** Darwin 20x20 ***
Turn = 0.
  01234567890123456789
0 t.r.................
1 .rrrtt..............
2 ....................
3 ...tt...............
4 ...ht...............
5 ....................
6 .t......r...........
7 .......f............
8 ....................
9 ....................
0 ....................
1 ....................
2 ....................
3 ....................
4 ....................
5 ....................
6 ....................
7 ....................
8 ....................
9 ....................

Turn = 1.
  01234567890123456789
0 tr.r................
1 ..r.tt..............
2 .r..................
3 ...tt...............
4 ..h.t...............
5 ....................
6 .t..................
7 .......fr...........
8 ....................
9 ....................
0 ....................
1 ....................
2 ....................
3 ....................
4 ....................
5 ....................
6 ....................
7 ....................
8 ....................
9 ....................

Turn = 2.
  01234567890123456789
0 rr.r................
1 ....tt..............
2 ..r.................
3 .r.tt...............
4 .h..t...............
5 ....................
6 .t..................
7 .......f............
8 ........r...........
9 ....................
0 ....................
1 ....................
2 ....................
3 ....................
4 ....................
5 ....................
6 ....................
7 ....................
8 ....................
9 ....................

Turn = 3.
  01234567890123456789
0 rrr.................
1 ....tt..............
2 ....................
3 .rrtt...............
4 r...t...............
5 ....................
6 .t..................
7 .......f............
8 ....................
9 ........r...........
0 ....................
1 ....................
2 ....................
3 ....................
4 ....................
5 ....................
6 ....................
7 ....................
8 ....................
9 ....................

Turn = 4.
  01234567890123456789
0 rrr.................
1 ....tt..............
2 ....................
3 ...tt...............
4 rrr.t...............
5 ....................
6 .t..................
7 .......f............
8 ....................
9 ....................
0 ........r...........
1 ....................
2 ....................
3 ....................
4 ....................
5 ....................
6 ....................
7 ....................
8 ....................
9 ....................

Turn = 5.
  01234567890123456789
0 rr..................
1 ..r.tt..............
2 ....................
3 ...tt...............
4 ....t...............
5 rrr.................
6 .t..................
7 .......f............
8 ....................
9 ....................
0 ....................
1 ........r...........
2 ....................
3 ....................
4 ....................
5 ....................
6 ....................
7 ....................
8 ....................
9 ....................

*** Darwin 15x15 ***
Turn = 0.
  012345678901234
0 f.r............
1 .rrrtt.........
2 ...............
3 ...hh..........
4 ...hh..........
5 ...............
6 .t......r......
7 .......f.......
8 ...............
9 ...............
0 ...............
1 ...............
2 ...............
3 ...............
4 ...............

Turn = 1.
  012345678901234
0 fr.r...........
1 ..r.tt.........
2 .r.h...........
3 .....h.........
4 ..h............
5 ....h..........
6 .t.............
7 .......fr......
8 ...............
9 ...............
0 ...............
1 ...............
2 ...............
3 ...............
4 ...............

Turn = 2.
  012345678901234
0 rr.r...........
1 ...htt.........
2 ..r............
3 .r....h........
4 .h.............
5 ...............
6 .t..h..........
7 .......f.......
8 ........r......
9 ...............
0 ...............
1 ...............
2 ...............
3 ...............
4 ...............

Turn = 3.
  012345678901234
0 rrrh...........
1 ....tt.........
2 ...............
3 .rr....h.......
4 r..............
5 ...............
6 .t.............
7 ....h..f.......
8 ...............
9 ........r......
0 ...............
1 ...............
2 ...............
3 ...............
4 ...............

Turn = 4.
  012345678901234
0 rrrh...........
1 ....tt.........
2 ...............
3 ........h......
4 rrr............
5 ...............
6 .t.............
7 .......f.......
8 ....h..........
9 ...............
0 ........r......
1 ...............
2 ...............
3 ...............
4 ...............

Turn = 5.
  012345678901234
0 rr.h...........
1 ..r.tt.........
2 ...............
3 .........h.....
4 ...............
5 rrr............
6 .t.............
7 .......f.......
8 ...............
9 ....h..........
0 ...............
1 ........r......
2 ...............
3 ...............
4 ...............

*** Darwin 20x20 ***
Turn = 0.
  01234567890123456789
0 f.r.................
1 .rrrtt..............
2 ....................
3 ...hh...............
4 ...hh...............
5 ....................
6 .t......r...........
7 .......f............
8 ....................
9 ....................
0 ....................
1 ....................
2 ....................
3 ....................
4 ....................
5 ....................
6 ....................
7 ....................
8 ....................
9 ....................

Turn = 1.
  01234567890123456789
0 fr..................
1 ..rrtt..............
2 .r..................
3 ..hh................
4 ..hh................
5 ....................
6 .t..................
7 .......fr...........
8 ....................
9 ....................
0 ....................
1 ....................
2 ....................
3 ....................
4 ....................
5 ....................
6 ....................
7 ....................
8 ....................
9 ....................

Turn = 2.
  01234567890123456789
0 rr..................
1 ....tt..............
2 ..rr................
3 .rhh................
4 .hh.................
5 ....................
6 .t..................
7 .......f............
8 ........r...........
9 ....................
0 ....................
1 ....................
2 ....................
3 ....................
4 ....................
5 ....................
6 ....................
7 ....................
8 ....................
9 ....................

Turn = 3.
  01234567890123456789
0 rr..................
1 ....tt..............
2 ..rr................
3 .rrr................
4 rh..................
5 ....................
6 .t..................
7 .......f............
8 ....................
9 ........r...........
0 ....................
1 ....................
2 ....................
3 ....................
4 ....................
5 ....................
6 ....................
7 ....................
8 ....................
9 ....................

Turn = 4.
  01234567890123456789
0 .r..................
1 r...tt..............
2 ..rr................
3 .rrr................
4 rr..................
5 ....................
6 .t..................
7 .......f............
8 ....................
9 ....................
0 ........r...........
1 ....................
2 ....................
3 ....................
4 ....................
5 ....................
6 ....................
7 ....................
8 ....................
9 ....................

Turn = 5.
  01234567890123456789
0 r...................
1 ....tt..............
2 r.rr................
3 rrrr................
4 ....................
5 .r..................
6 .t..................
7 .......f............
8 ....................
9 ....................
0 ....................
1 ........r...........
2 ....................
3 ....................
4 ....................
5 ....................
6 ....................
7 ....................
8 ....................
9 ....................

*** Darwin 20x20 ***
Turn = 0.
  01234567890123456789
0 f.r.................
1 .rrrtt..............
2 ....................
3 ...hh...............
4 ...hh...............
5 ....................
6 .t......r...........
7 .......f............
8 ....................
9 ....................
0 ....................
1 ....................
2 ....................
3 ....................
4 ....................
5 ....................
6 ....................
7 ....................
8 ....................
9 ....................

Turn = 1.
  01234567890123456789
0 fr...r..............
1 ..rrr...............
2 .r..................
3 ...h.h..............
4 ...h.h..............
5 ....................
6 .t..................
7 .......fr...........
8 ....................
9 ....................
0 ....................
1 ....................
2 ....................
3 ....................
4 ....................
5 ....................
6 ....................
7 ....................
8 ....................
9 ....................

Turn = 2.
  01234567890123456789
0 rr...r..............
1 ...r.r..............
2 ..r.................
3 .r..h.h.............
4 ....h.h.............
5 ....................
6 .t..................
7 .......f............
8 ........r...........
9 ....................
0 ....................
1 ....................
2 ....................
3 ....................
4 ....................
5 ....................
6 ....................
7 ....................
8 ....................
9 ....................

Turn = 3.
  01234567890123456789
0 rr..r...............
1 ......r.............
2 ...r................
3 ..r..h.h............
4 .r...h.h............
5 ....................
6 .t..................
7 .......f............
8 ....................
9 ........r...........
0 ....................
1 ....................
2 ....................
3 ....................
4 ....................
5 ....................
6 ....................
7 ....................
8 ....................
9 ....................

Turn = 4.
  01234567890123456789
0 rr.r................
1 .......r............
2 ....................
3 ...r..h.h...........
4 ..r...h.h...........
5 .t..................
6 .t..................
7 .......f............
8 ....................
9 ....................
0 ........r...........
1 ....................
2 ....................
3 ....................
4 ....................
5 ....................
6 ....................
7 ....................
8 ....................
9 ....................

Turn = 5.
  01234567890123456789
0 rrr.................
1 ........r...........
2 ....................
3 .......h.h..........
4 ...r...h.h..........
5 .tr.................
6 .t..................
7 .......f............
8 ....................
9 ....................
0 ....................
1 ........r...........
2 ....................
3 ....................
4 ....................
5 ....................
6 ....................
7 ....................
8 ....................
9 ....................

*** Darwin 20x20 ***
Turn = 0.
  01234567890123456789
0 f.r.................
1 .rrrtt..............
2 ....................
3 ...hh...............
4 ...hh...............
5 ....................
6 .t......r...........
7 .......f............
8 ....................
9 ....................
0 ....................
1 ....................
2 ....................
3 ....................
4 ....................
5 ....................
6 ....................
7 ....................
8 ....................
9 ....................

Turn = 1.
  01234567890123456789
0 fr..................
1 ..r.tt..............
2 .r.r................
3 ...hh...............
4 ....................
5 ...hh...............
6 .t..................
7 .......fr...........
8 ....................
9 ....................
0 ....................
1 ....................
2 ....................
3 ....................
4 ....................
5 ....................
6 ....................
7 ....................
8 ....................
9 ....................

Turn = 2.
  01234567890123456789
0 rr..................
1 ....tt..............
2 ..rr................
3 .r..................
4 ...rh...............
5 ....................
6 .t.hh...............
7 .......f............
8 ........r...........
9 ....................
0 ....................
1 ....................
2 ....................
3 ....................
4 ....................
5 ....................
6 ....................
7 ....................
8 ....................
9 ....................

Turn = 3.
  01234567890123456789
0 rr..................
1 ....tt..............
2 ....................
3 ..rr................
4 .r..................
5 ...rh...............
6 .t..................
7 ...hh..f............
8 ....................
9 ........r...........
0 ....................
1 ....................
2 ....................
3 ....................
4 ....................
5 ....................
6 ....................
7 ....................
8 ....................
9 ....................

Turn = 4.
  01234567890123456789
0 rr..................
1 ....tt..............
2 ....................
3 ....................
4 ..rr................
5 .t..................
6 .t.rh...............
7 .......f............
8 ...hh...............
9 ....................
0 ........r...........
1 ....................
2 ....................
3 ....................
4 ....................
5 ....................
6 ....................
7 ....................
8 ....................
9 ....................

Turn = 5.
  01234567890123456789
0 r.r.................
1 ....tt..............
2 ....................
3 ....................
4 ....................
5 .trr................
6 .t..................
7 ...rh..f............
8 ....................
9 ...hh...............
0 ....................
1 ........r...........
2 ....................
3 ....................
4 ....................
5 ....................
6 ....................
7 ....................
8 ....................
9 ....................

*** Darwin 14x20 ***
Turn = 0.
  01234567890123456789
0 f.r.................
1 .rrrtt..............
2 ....................
3 ...hh...............
4 ...hh...............
5 ....................
6 .t......r...........
7 .......f............
8 ....................
9 ....................
0 ....................
1 ....................
2 ....................
3 ....................

Turn = 1.
  01234567890123456789
0 fr.r................
1 ..r.tt..............
2 .r.h................
3 .....h..............
4 ..h.................
5 ....h...............
6 .t..................
7 .......fr...........
8 ....................
9 ....................
0 ....................
1 ....................
2 ....................
3 ....................

Turn = 2.
  01234567890123456789
0 rr.r................
1 ...htt..............
2 ..r.................
3 .r....h.............
4 .h..................
5 ....................
6 .t..h...............
7 .......f............
8 ........r...........
9 ....................
0 ....................
1 ....................
2 ....................
3 ....................

Turn = 3.
  01234567890123456789
0 rrrh................
1 ....tt..............
2 ....................
3 .rr....h............
4 r...................
5 ....................
6 .t..................
7 ....h..f............
8 ....................
9 ........r...........
0 ....................
1 ....................
2 ....................
3 ....................

Turn = 4.
  01234567890123456789
0 rrrh................
1 ....tt..............
2 ....................
3 ........h...........
4 rrr.................
5 ....................
6 .t..................
7 .......f............
8 ....h...............
9 ....................
0 ........r...........
1 ....................
2 ....................
3 ....................

Turn = 5.
  01234567890123456789
0 rr.h................
1 ..r.tt..............
2 ....................
3 .........h..........
4 ....................
5 rrr.................
6 .t..................
7 .......f............
8 ....................
9 ....h...............
0 ....................
1 ........r...........
2 ....................
3 ....................

*** Darwin 20x20 ***
Turn = 0.
  01234567890123456789
0 h.h.................
1 .hhhhh..............
2 ....................
3 ...hh...............
4 ...hh...............
5 ....................
6 .h......h...........
7 .......h............
8 ....................
9 ....................
0 ....................
1 ....................
2 ....................
3 ....................
4 ....................
5 ....................
6 ....................
7 ....................
8 ....................
9 ....................

Turn = 1.
  01234567890123456789
0 .hhh.h..............
1 ..h.h...............
2 .h.h................
3 .....h..............
4 ..h.................
5 ....h...............
6 h......h............
7 ........h...........
8 ....................
9 ....................
0 ....................
1 ....................
2 ....................
3 ....................
4 ....................
5 ....................
6 ....................
7 ....................
8 ....................
9 ....................

Turn = 2.
  01234567890123456789
0 .hhh.h..............
1 ...h.h..............
2 ...h................
3 .h....h.............
4 .h..................
5 .......h............
6 h...h...............
7 ....................
8 ........h...........
9 ....................
0 ....................
1 ....................
2 ....................
3 ....................
4 ....................
5 ....................
6 ....................
7 ....................
8 ....................
9 ....................

Turn = 3.
  01234567890123456789
0 .hhh.h..............
1 ...hh.h.............
2 ....................
3 .h.....h............
4 h......h............
5 ....................
6 h...................
7 ....h...............
8 ....................
9 ........h...........
0 ....................
1 ....................
2 ....................
3 ....................
4 ....................
5 ....................
6 ....................
7 ....................
8 ....................
9 ....................

Turn = 4.
  01234567890123456789
0 .hhh.h..............
1 ...h.h.h............
2 ....................
3 .......hh...........
4 hh..................
5 ....................
6 h...................
7 ....................
8 ....h...............
9 ....................
0 ........h...........
1 ....................
2 ....................
3 ....................
4 ....................
5 ....................
6 ....................
7 ....................
8 ....................
9 ....................

Turn = 5.
  01234567890123456789
0 .hhh.h..............
1 ...h..h.h...........
2 .......h............
3 .........h..........
4 h...................
5 .h..................
6 h...................
7 ....................
8 ....................
9 ....h...............
0 ....................
1 ........h...........
2 ....................
3 ....................
4 ....................
5 ....................
6 ....................
7 ....................
8 ....................
9 ....................

*** Darwin 20x20 ***
Turn = 0.
  01234567890123456789
0 r.r.................
1 .rrrtt..............
2 ....................
3 ...hh...............
4 ...hh...............
5 ....................
6 .t......r...........
7 .......f............
8 ....................
9 ....................
0 ....................
1 ....................
2 ....................
3 ....................
4 ....................
5 ....................
6 ....................
7 ....................
8 ....................
9 ....................

Turn = 1.
  01234567890123456789
0 rr.r................
1 ..r.tt..............
2 .r.h................
3 .....h..............
4 ..h.................
5 ....h...............
6 .t..................
7 .......fr...........
8 ....................
9 ....................
0 ....................
1 ....................
2 ....................
3 ....................
4 ....................
5 ....................
6 ....................
7 ....................
8 ....................
9 ....................

Turn = 2.
  01234567890123456789
0 rrrr................
1 ...htt..............
2 ....................
3 .r....h.............
4 .h..................
5 ....................
6 .t..h...............
7 .......f............
8 ........r...........
9 ....................
0 ....................
1 ....................
2 ....................
3 ....................
4 ....................
5 ....................
6 ....................
7 ....................
8 ....................
9 ....................

Turn = 3.
  01234567890123456789
0 .rrhr...............
1 r...tt..............
2 ....................
3 .r.....h............
4 r...................
5 ....................
6 .t..................
7 ....h..f............
8 ....................
9 ........r...........
0 ....................
1 ....................
2 ....................
3 ....................
4 ....................
5 ....................
6 ....................
7 ....................
8 ....................
9 ....................

Turn = 4.
  01234567890123456789
0 .rrh.r..............
1 ....tt..............
2 r...................
3 ........h...........
4 rr..................
5 ....................
6 .t..................
7 .......f............
8 ....h...............
9 ....................
0 ........r...........
1 ....................
2 ....................
3 ....................
4 ....................
5 ....................
6 ....................
7 ....................
8 ....................
9 ....................

Turn = 5.
  01234567890123456789
0 .rrh..r.............
1 ....tt..............
2 ....................
3 r........h..........
4 r...................
5 .r..................
6 .t..................
7 .......f............
8 ....................
9 ....h...............
0 ....................
1 ........r...........
2 ....................
3 ....................
4 ....................
5 ....................
6 ....................
7 ....................
8 ....................
9 ....................

*** Darwin 20x20 ***
Turn = 0.
  01234567890123456789
0 ..r...t.............
1 .rrrtt..............
2 ....................
3 ...hh...............
4 ...hh...............
5 ....................
6 .t......r...........
7 .......f............
8 ....................
9 ....................
0 ....................
1 ....................
2 ....................
3 ....................
4 ....................
5 ....................
6 ....................
7 ....................
8 ....................
9 ....................

Turn = 1.
  01234567890123456789
0 .r.r..t.............
1 ..r.tt..............
2 .r.h................
3 .....h..............
4 ..h.................
5 ....h...............
6 .t..................
7 .......fr...........
8 ....................
9 ....................
0 ....................
1 ....................
2 ....................
3 ....................
4 ....................
5 ....................
6 ....................
7 ....................
8 ....................
9 ....................

Turn = 2.
  01234567890123456789
0 r..r..t.............
1 ...htt..............
2 ..r.................
3 .r....h.............
4 .h..................
5 ....................
6 .t..h...............
7 .......f............
8 ........r...........
9 ....................
0 ....................
1 ....................
2 ....................
3 ....................
4 ....................
5 ....................
6 ....................
7 ....................
8 ....................
9 ....................

Turn = 3.
  01234567890123456789
0 r.rh..t.............
1 ....tt..............
2 ....................
3 .rr....h............
4 r...................
5 ....................
6 .t..................
7 ....h..f............
8 ....................
9 ........r...........
0 ....................
1 ....................
2 ....................
3 ....................
4 ....................
5 ....................
6 ....................
7 ....................
8 ....................
9 ....................

Turn = 4.
  01234567890123456789
0 rr.h..t.............
1 ....tt..............
2 ....................
3 ........h...........
4 rrr.................
5 ....................
6 .t..................
7 .......f............
8 ....h...............
9 ....................
0 ........r...........
1 ....................
2 ....................
3 ....................
4 ....................
5 ....................
6 ....................
7 ....................
8 ....................
9 ....................

Turn = 5.
  01234567890123456789
0 rr.h..t.............
1 ....tt..............
2 ....................
3 r........h..........
4 ....................
5 .rr.................
6 .t..................
7 .......f............
8 ....................
9 ....h...............
0 ....................
1 ........r...........
2 ....................
3 ....................
4 ....................
5 ....................
6 ....................
7 ....................
8 ....................
9 ....................

*** Darwin 20x20 ***
Turn = 0.
  01234567890123456789
0 ..r.................
1 rrrrtt..............
2 ....................
3 ...hh...............
4 ...hh...............
5 ....................
6 .t......r...........
7 .......f............
8 ....................
9 ....................
0 ....................
1 ....................
2 ....................
3 ....................
4 ....................
5 ....................
6 ....................
7 ....................
8 ....................
9 ....................

Turn = 1.
  01234567890123456789
0 .r.r................
1 ..r.tt..............
2 rr.h................
3 .....h..............
4 ..h.................
5 ....h...............
6 .t..................
7 .......fr...........
8 ....................
9 ....................
0 ....................
1 ....................
2 ....................
3 ....................
4 ....................
5 ....................
6 ....................
7 ....................
8 ....................
9 ....................

Turn = 2.
  01234567890123456789
0 r..r................
1 ...htt..............
2 ..r.................
3 rr....h.............
4 .h..................
5 ....................
6 .t..h...............
7 .......f............
8 ........r...........
9 ....................
0 ....................
1 ....................
2 ....................
3 ....................
4 ....................
5 ....................
6 ....................
7 ....................
8 ....................
9 ....................

Turn = 3.
  01234567890123456789
0 r.rh................
1 ....tt..............
2 ....................
3 .rr....h............
4 rr..................
5 ....................
6 .t..................
7 ....h..f............
8 ....................
9 ........r...........
0 ....................
1 ....................
2 ....................
3 ....................
4 ....................
5 ....................
6 ....................
7 ....................
8 ....................
9 ....................

Turn = 4.
  01234567890123456789
0 rr.h................
1 ....tt..............
2 ....................
3 .r......h...........
4 .rr.................
5 r...................
6 .t..................
7 .......f............
8 ....h...............
9 ....................
0 ........r...........
1 ....................
2 ....................
3 ....................
4 ....................
5 ....................
6 ....................
7 ....................
8 ....................
9 ....................

Turn = 5.
  01234567890123456789
0 rr.h................
1 ....tt..............
2 ....................
3 r........h..........
4 r...................
5 ..r.................
6 tt..................
7 .......f............
8 ....................
9 ....h...............
0 ....................
1 ........r...........
2 ....................
3 ....................
4 ....................
5 ....................
6 ....................
7 ....................
8 ....................
9 ....................

*** Darwin 40x20 ***
Turn = 0.
  01234567890123456789
0 f.r.................
1 .rrrtt..............
2 ....................
3 ...hh...............
4 ...hh...............
5 ....................
6 .t......r...........
7 .......f............
8 ....................
9 ....................
0 ....................
1 ....................
2 ....................
3 ....................
4 ....................
5 ....................
6 ....................
7 ....................
8 ....................
9 ....................
0 ....................
1 ....................
2 ....................
3 ....................
4 ....................
5 ....................
6 ....................
7 ....................
8 ....................
9 ....................
0 ....................
1 ....................
2 ....................
3 ....................
4 ....................
5 ....................
6 ....................
7 ....................
8 ....................
9 ....................

Turn = 1.
  01234567890123456789
0 fr.r................
1 ..r.tt..............
2 .r.h................
3 .....h..............
4 ..h.................
5 ....h...............
6 .t..................
7 .......fr...........
8 ....................
9 ....................
0 ....................
1 ....................
2 ....................
3 ....................
4 ....................
5 ....................
6 ....................
7 ....................
8 ....................
9 ....................
0 ....................
1 ....................
2 ....................
3 ....................
4 ....................
5 ....................
6 ....................
7 ....................
8 ....................
9 ....................
0 ....................
1 ....................
2 ....................
3 ....................
4 ....................
5 ....................
6 ....................
7 ....................
8 ....................
9 ....................

Turn = 2.
  01234567890123456789
0 rr.r................
1 ...htt..............
2 ..r.................
3 .r....h.............
4 .h..................
5 ....................
6 .t..h...............
7 .......f............
8 ........r...........
9 ....................
0 ....................
1 ....................
2 ....................
3 ....................
4 ....................
5 ....................
6 ....................
7 ....................
8 ....................
9 ....................
0 ....................
1 ....................
2 ....................
3 ....................
4 ....................
5 ....................
6 ....................
7 ....................
8 ....................
9 ....................
0 ....................
1 ....................
2 ....................
3 ....................
4 ....................
5 ....................
6 ....................
7 ....................
8 ....................
9 ....................

Turn = 3.
  01234567890123456789
0 rrrh................
1 ....tt..............
2 ....................
3 .rr....h............
4 r...................
5 ....................
6 .t..................
7 ....h..f............
8 ....................
9 ........r...........
0 ....................
1 ....................
2 ....................
3 ....................
4 ....................
5 ....................
6 ....................
7 ....................
8 ....................
9 ....................
0 ....................
1 ....................
2 ....................
3 ....................
4 ....................
5 ....................
6 ....................
7 ....................
8 ....................
9 ....................
0 ....................
1 ....................
2 ....................
3 ....................
4 ....................
5 ....................
6 ....................
7 ....................
8 ....................
9 ....................

Turn = 4.
  01234567890123456789
0 rrrh................
1 ....tt..............
2 ....................
3 ........h...........
4 rrr.................
5 ....................
6 .t..................
7 .......f............
8 ....h...............
9 ....................
0 ........r...........
1 ....................
2 ....................
3 ....................
4 ....................
5 ....................
6 ....................
7 ....................
8 ....................
9 ....................
0 ....................
1 ....................
2 ....................
3 ....................
4 ....................
5 ....................
6 ....................
7 ....................
8 ....................
9 ....................
0 ....................
1 ....................
2 ....................
3 ....................
4 ....................
5 ....................
6 ....................
7 ....................
8 ....................
9 ....................

Turn = 5.
  01234567890123456789
0 rr.h................
1 ..r.tt..............
2 ....................
3 .........h..........
4 ....................
5 rrr.................
6 .t..................
7 .......f............
8 ....................
9 ....h...............
0 ....................
1 ........r...........
2 ....................
3 ....................
4 ....................
5 ....................
6 ....................
7 ....................
8 ....................
9 ....................
0 ....................
1 ....................
2 ....................
3 ....................
4 ....................
5 ....................
6 ....................
7 ....................
8 ....................
9 ....................
0 ....................
1 ....................
2 ....................
3 ....................
4 ....................
5 ....................
6 ....................
7 ....................
8 ....................
9 ....................

*** Darwin 10x26 ***
Turn = 0.
  01234567890123456789012345
0 f.r.......................
1 .rrrtt....................
2 ..........................
3 ...hh.....................
4 ...hh.....................
5 ..........................
6 .t......r.................
7 .......f..................
8 ..........................
9 ..........................

Turn = 1.
  01234567890123456789012345
0 fr.r......................
1 ..r.tt....................
2 .r.h......................
3 .....h....................
4 ..h.......................
5 ....h.....................
6 .t........................
7 .......fr.................
8 ..........................
9 ..........................

Turn = 2.
  01234567890123456789012345
0 rr.r......................
1 ...htt....................
2 ..r.......................
3 .r....h...................
4 .h........................
5 ..........................
6 .t..h.....................
7 .......f..................
8 ........r.................
9 ..........................

Turn = 3.
  01234567890123456789012345
0 rrrh......................
1 ....tt....................
2 ..........................
3 .rr....h..................
4 r.........................
5 ..........................
6 .t........................
7 ....h..f..................
8 ..........................
9 ........r.................

Turn = 4.
  01234567890123456789012345
0 rrrh......................
1 ....tt....................
2 ..........................
3 ........h.................
4 rrr.......................
5 ..........................
6 .t........................
7 .......f..................
8 ....h.....................
9 ........r.................

Turn = 5.
  01234567890123456789012345
0 rr.h......................
1 ..r.tt....................
2 ..........................
3 .........h................
4 ..........................
5 rrr.......................
6 .t........................
7 .......f..................
8 ..........................
9 ....h..r..................

*** Darwin 20x20 ***
Turn = 0.
  01234567890123456789
0 t.r.................
1 .rrrtt..............
2 ....................
3 ...tt...............
4 ...hh...............
5 ....................
6 .t......r...........
7 .......f............
8 ....................
9 ....................
0 ....................
1 ....................
2 ....................
3 ....................
4 ....................
5 ....................
6 ....................
7 ....................
8 ....................
9 ....................

Turn = 1.
  01234567890123456789
0 tr.r................
1 ..r.tt..............
2 .r..................
3 ...tt...............
4 ..h.................
5 ....h...............
6 .t..................
7 .......fr...........
8 ....................
9 ....................
0 ....................
1 ....................
2 ....................
3 ....................
4 ....................
5 ....................
6 ....................
7 ....................
8 ....................
9 ....................

Turn = 2.
  01234567890123456789
0 rr.r................
1 ....tt..............
2 ..r.................
3 .r.tt...............
4 .h..................
5 ....................
6 .t..h...............
7 .......f............
8 ........r...........
9 ....................
0 ....................
1 ....................
2 ....................
3 ....................
4 ....................
5 ....................
6 ....................
7 ....................
8 ....................
9 ....................

Turn = 3.
  01234567890123456789
0 rrr.................
1 ....tt..............
2 ....................
3 .rrtt...............
4 r...................
5 ....................
6 .t..................
7 ....h..f............
8 ....................
9 ........r...........
0 ....................
1 ....................
2 ....................
3 ....................
4 ....................
5 ....................
6 ....................
7 ....................
8 ....................
9 ....................

Turn = 4.
  01234567890123456789
0 .rr.................
1 r...tt..............
2 ....................
3 ...tt...............
4 rrr.................
5 ....................
6 .t..................
7 .......f............
8 ....h...............
9 ....................
0 ........r...........
1 ....................
2 ....................
3 ....................
4 ....................
5 ....................
6 ....................
7 ....................
8 ....................
9 ....................

Turn = 5.
  01234567890123456789
0 .rr.................
1 ....tt..............
2 r...................
3 ...tt...............
4 ....................
5 rrr.................
6 .t..................
7 .......f............
8 ....................
9 ....h...............
0 ....................
1 ........r...........
2 ....................
3 ....................
4 ....................
5 ....................
6 ....................
7 ....................
8 ....................
9 ....................

*** Darwin 20x20 ***
Turn = 0.
  01234567890123456789
0 f.r.................
1 .rrrtt..............
2 ....................
3 ...hh...............
4 ...hh...............
5 ....................
6 .t......r...........
7 .......f............
8 ....................
9 ....................
0 ....................
1 ....................
2 ....................
3 ....................
4 ....................
5 ....................
6 ....................
7 ....................
8 ....................
9 ....................

Turn = 1.
  01234567890123456789
0 fr.r................
1 rr..tt..............
2 ...h................
3 .....h..............
4 ..h.................
5 ....h...............
6 .t..................
7 .......fr...........
8 ....................
9 ....................
0 ....................
1 ....................
2 ....................
3 ....................
4 ....................
5 ....................
6 ....................
7 ....................
8 ....................
9 ....................

Turn = 2.
  01234567890123456789
0 rr.r................
1 rr.htt..............
2 ....................
3 ......h.............
4 .h..................
5 ....................
6 .t..h...............
7 .......f............
8 ........r...........
9 ....................
0 ....................
1 ....................
2 ....................
3 ....................
4 ....................
5 ....................
6 ....................
7 ....................
8 ....................
9 ....................

Turn = 3.
  01234567890123456789
0 rr.hr...............
1 .r..tt..............
2 r...................
3 .......h............
4 h...................
5 ....................
6 .t..................
7 ....h..f............
8 ....................
9 ........r...........
0 ....................
1 ....................
2 ....................
3 ....................
4 ....................
5 ....................
6 ....................
7 ....................
8 ....................
9 ....................

Turn = 4.
  01234567890123456789
0 rr.h.t..............
1 ..r.tt..............
2 ....................
3 r.......h...........
4 h...................
5 ....................
6 .t..................
7 .......f............
8 ....h...............
9 ....................
0 ........r...........
1 ....................
2 ....................
3 ....................
4 ....................
5 ....................
6 ....................
7 ....................
8 ....................
9 ....................

Turn = 5.
  01234567890123456789
0 rr.h.t..............
1 ...rtt..............
2 ....................
3 r........h..........
4 r...................
5 ....................
6 .t..................
7 .......f............
8 ....................
9 ....h...............
0 ....................
1 ........r...........
2 ....................
3 ....................
4 ....................
5 ....................
6 ....................
7 ....................
8 ....................
9 ....................

*** Darwin 20x20 ***
Turn = 0.
  01234567890123456789
0 r.r.................
1 .rrrtr..............
2 ....................
3 ...hh...............
4 ...hh...............
5 ....................
6 .r......r...........
7 .......r............
8 ....................
9 ....................
0 ....................
1 ....................
2 ....................
3 ....................
4 ....................
5 ....................
6 ....................
7 ....................
8 ....................
9 ....................

Turn = 1.
  01234567890123456789
0 .rrr................
1 ..r.tt..............
2 .r.h................
3 .....h..............
4 ..h.................
5 ....h...............
6 r......r............
7 ........r...........
8 ....................
9 ....................
0 ....................
1 ....................
2 ....................
3 ....................
4 ....................
5 ....................
6 ....................
7 ....................
8 ....................
9 ....................

Turn = 2.
  01234567890123456789
0 .rrr................
1 ..rhtt..............
2 ....................
3 .r....h.............
4 .h..................
5 .......r............
6 r...h...............
7 ....................
8 ........r...........
9 ....................
0 ....................
1 ....................
2 ....................
3 ....................
4 ....................
5 ....................
6 ....................
7 ....................
8 ....................
9 ....................

Turn = 3.
  01234567890123456789
0 ..rrt...............
1 .rr.tt..............
2 ....................
3 .r.....h............
4 r......r............
5 ....................
6 ....................
7 r...h...............
8 ....................
9 ........r...........
0 ....................
1 ....................
2 ....................
3 ....................
4 ....................
5 ....................
6 ....................
7 ....................
8 ....................
9 ....................

Turn = 4.
  01234567890123456789
0 ..rrt...............
1 ...rtt..............
2 .r..................
3 .......rh...........
4 rr..................
5 ....................
6 ....................
7 ....................
8 r...h...............
9 ....................
0 ........r...........
1 ....................
2 ....................
3 ....................
4 ....................
5 ....................
6 ....................
7 ....................
8 ....................
9 ....................

Turn = 5.
  01234567890123456789
0 ..rrr...............
1 ...rrt..............
2 .......r............
3 .r.......h..........
4 ....................
5 rr..................
6 ....................
7 ....................
8 ....................
9 r...h...............
0 ....................
1 ........r...........
2 ....................
3 ....................
4 ....................
5 ....................
6 ....................
7 ....................
8 ....................
9 ....................

*** Darwin 20x20 ***
Turn = 0.
  01234567890123456789
0 ..r..f..............
1 .rrrtt..............
2 ....................
3 ...hh...............
4 ...hh...............
5 ....................
6 .t......r...........
7 .......f............
8 ....................
9 ....................
0 ....................
1 ....................
2 ....................
3 ....................
4 ....................
5 ....................
6 ....................
7 ....................
8 ....................
9 ....................

Turn = 1.
  01234567890123456789
0 .r.r.t..............
1 ..r.tt..............
2 .r.h................
3 .....h..............
4 ..h.................
5 ....h...............
6 .t..................
7 .......fr...........
8 ....................
9 ....................
0 ....................
1 ....................
2 ....................
3 ....................
4 ....................
5 ....................
6 ....................
7 ....................
8 ....................
9 ....................

Turn = 2.
  01234567890123456789
0 r..r.t..............
1 ...htt..............
2 ..r.................
3 .r....h.............
4 .h..................
5 ....................
6 .t..h...............
7 .......f............
8 ........r...........
9 ....................
0 ....................
1 ....................
2 ....................
3 ....................
4 ....................
5 ....................
6 ....................
7 ....................
8 ....................
9 ....................

Turn = 3.
  01234567890123456789
0 r.rh.t..............
1 ....tt..............
2 ....................
3 .rr....h............
4 r...................
5 ....................
6 .t..................
7 ....h..f............
8 ....................
9 ........r...........
0 ....................
1 ....................
2 ....................
3 ....................
4 ....................
5 ....................
6 ....................
7 ....................
8 ....................
9 ....................

Turn = 4.
  01234567890123456789
0 rr.h.t..............
1 ....tt..............
2 ....................
3 ........h...........
4 rrr.................
5 ....................
6 .t..................
7 .......f............
8 ....h...............
9 ....................
0 ........r...........
1 ....................
2 ....................
3 ....................
4 ....................
5 ....................
6 ....................
7 ....................
8 ....................
9 ....................

Turn = 5.
  01234567890123456789
0 rr.h.t..............
1 ....tt..............
2 ....................
3 r........h..........
4 ....................
5 .rr.................
6 .t..................
7 .......f............
8 ....................
9 ....h...............
0 ....................
1 ........r...........
2 ....................
3 ....................
4 ....................
5 ....................
6 ....................
7 ....................
8 ....................
9 ....................

*** Darwin 20x20 ***
Turn = 0.
  01234567890123456789
0 h.r.................
1 .rrrtt..............
2 ....................
3 ...hh...............
4 ...hr...............
5 ....................
6 .t......r...........
7 .......f............
8 ....................
9 ....................
0 ....................
1 ....................
2 ....................
3 ....................
4 ....................
5 ....................
6 ....................
7 ....................
8 ....................
9 ....................

Turn = 1.
  01234567890123456789
0 .rrr................
1 ..r.tt..............
2 .r.h................
3 .....h..............
4 ..h.................
5 ....r...............
6 .t..................
7 .......fr...........
8 ....................
9 ....................
0 ....................
1 ....................
2 ....................
3 ....................
4 ....................
5 ....................
6 ....................
7 ....................
8 ....................
9 ....................

Turn = 2.
  01234567890123456789
0 .rrr................
1 ...htt..............
2 ..r.................
3 .r....h.............
4 .h..................
5 ....................
6 .t..r...............
7 .......f............
8 ........r...........
9 ....................
0 ....................
1 ....................
2 ....................
3 ....................
4 ....................
5 ....................
6 ....................
7 ....................
8 ....................
9 ....................

Turn = 3.
  01234567890123456789
0 .rrhr...............
1 ....tt..............
2 ....................
3 .rr....h............
4 r...................
5 ....................
6 .t..................
7 ....r..f............
8 ....................
9 ........r...........
0 ....................
1 ....................
2 ....................
3 ....................
4 ....................
5 ....................
6 ....................
7 ....................
8 ....................
9 ....................

Turn = 4.
  01234567890123456789
0 .rrr.r..............
1 ....tt..............
2 ....................
3 ........h...........
4 rrr.................
5 ....................
6 .t..................
7 .......f............
8 ....r...............
9 ....................
0 ........r...........
1 ....................
2 ....................
3 ....................
4 ....................
5 ....................
6 ....................
7 ....................
8 ....................
9 ....................

Turn = 5.
  01234567890123456789
0 .rrr..r.............
1 ....tt..............
2 ....................
3 r........h..........
4 ....................
5 .rr.................
6 .t..................
7 .......f............
8 ....................
9 ....r...............
0 ....................
1 ........r...........
2 ....................
3 ....................
4 ....................
5 ....................
6 ....................
7 ....................
8 ....................
9 ....................

*** Darwin 20x20 ***
Turn = 0.
  01234567890123456789
0 f.r.................
1 .rrrtt..............
2 ....................
3 ...hh...............
4 ...hh...............
5 ....................
6 .t......r...........
7 .......f............
8 ....................
9 ....................
0 ....................
1 ....................
2 ....................
3 ....................
4 ....................
5 ....................
6 ....................
7 ....................
8 ....................
9 ....................

Turn = 1.
  01234567890123456789
0 fr.r................
1 ..r.tt..............
2 .r.h................
3 .....h..............
4 ....................
5 ...hh...............
6 .t..................
7 .......fr...........
8 ....................
9 ....................
0 ....................
1 ....................
2 ....................
3 ....................
4 ....................
5 ....................
6 ....................
7 ....................
8 ....................
9 ....................

Turn = 2.
  01234567890123456789
0 rr.r................
1 ...htt..............
2 ..r.................
3 .r....h.............
4 ....................
5 ....................
6 .t.hh...............
7 .......f............
8 ........r...........
9 ....................
0 ....................
1 ....................
2 ....................
3 ....................
4 ....................
5 ....................
6 ....................
7 ....................
8 ....................
9 ....................

Turn = 3.
  01234567890123456789
0 r.rh................
1 r...tt..............
2 ....................
3 ..r....h............
4 .r..................
5 ....................
6 .t..................
7 ...hh..f............
8 ....................
9 ........r...........
0 ....................
1 ....................
2 ....................
3 ....................
4 ....................
5 ....................
6 ....................
7 ....................
8 ....................
9 ....................

Turn = 4.
  01234567890123456789
0 rr.h................
1 ....tt..............
2 r...................
3 ........h...........
4 ..r.................
5 .t..................
6 .t..................
7 .......f............
8 ...hh...............
9 ....................
0 ........r...........
1 ....................
2 ....................
3 ....................
4 ....................
5 ....................
6 ....................
7 ....................
8 ....................
9 ....................

Turn = 5.
  01234567890123456789
0 rr.h................
1 ....tt..............
2 ....................
3 r........h..........
4 ....................
5 .tr.................
6 .t..................
7 .......f............
8 ....................
9 ...hh...............
0 ....................
1 ........r...........
2 ....................
3 ....................
4 ....................
5 ....................
6 ....................
7 ....................
8 ....................
9 ....................

*** Darwin 20x20 ***
Turn = 0.
  01234567890123456789
0 f.r.................
1 .rrrtt..............
2 ....................
3 ...hh...............
4 ...hh...............
5 ....................
6 .t......r...........
7 .......f............
8 ....................
9 ....................
0 ....................
1 ....................
2 ....................
3 ....................
4 ....................
5 ....................
6 ....................
7 ....................
8 ....................
9 ....................

Turn = 1.
  01234567890123456789
0 fr.r................
1 ..r.tt..............
2 .r.h................
3 .....h..............
4 ...h................
5 ....h...............
6 .t..................
7 .......fr...........
8 ....................
9 ....................
0 ....................
1 ....................
2 ....................
3 ....................
4 ....................
5 ....................
6 ....................
7 ....................
8 ....................
9 ....................

Turn = 2.
  01234567890123456789
0 rr.r................
1 ...htt..............
2 ..r.................
3 .r....h.............
4 ....h...............
5 ....................
6 .t..h...............
7 .......f............
8 ........r...........
9 ....................
0 ....................
1 ....................
2 ....................
3 ....................
4 ....................
5 ....................
6 ....................
7 ....................
8 ....................
9 ....................

Turn = 3.
  01234567890123456789
0 rrrh................
1 ....tt..............
2 ....................
3 ..r....h............
4 .r...h..............
5 ....................
6 .t..................
7 ....h..f............
8 ....................
9 ........r...........
0 ....................
1 ....................
2 ....................
3 ....................
4 ....................
5 ....................
6 ....................
7 ....................
8 ....................
9 ....................

Turn = 4.
  01234567890123456789
0 .rrh................
1 r...tt..............
2 ....................
3 ........h...........
4 ..r...h.............
5 .t..................
6 .t..................
7 .......f............
8 ....h...............
9 ....................
0 ........r...........
1 ....................
2 ....................
3 ....................
4 ....................
5 ....................
6 ....................
7 ....................
8 ....................
9 ....................

Turn = 5.
  01234567890123456789
0 .rrh................
1 ....tt..............
2 r...................
3 .........h..........
4 .......h............
5 .tr.................
6 .t..................
7 .......f............
8 ....................
9 ....h...............
0 ....................
1 ........r...........
2 ....................
3 ....................
4 ....................
5 ....................
6 ....................
7 ....................
8 ....................
9 ....................

*** Darwin 20x20 ***
Turn = 0.
  01234567890123456789
0 t.r.................
1 .rrrtt..............
2 ....................
3 ...ht...............
4 ...th...............
5 ....................
6 .t......r...........
7 .......f............
8 ....................
9 ....................
0 ....................
1 ....................
2 ....................
3 ....................
4 ....................
5 ....................
6 ....................
7 ....................
8 ....................
9 ....................

Turn = 1.
  01234567890123456789
0 tr.r................
1 ..r.tt..............
2 .r.h................
3 ....t...............
4 ...t................
5 ....h...............
6 .t..................
7 .......fr...........
8 ....................
9 ....................
0 ....................
1 ....................
2 ....................
3 ....................
4 ....................
5 ....................
6 ....................
7 ....................
8 ....................
9 ....................

Turn = 2.
  01234567890123456789
0 rr.r................
1 ...htt..............
2 ..r.................
3 .r..t...............
4 ...t................
5 ....................
6 .t..h...............
7 .......f............
8 ........r...........
9 ....................
0 ....................
1 ....................
2 ....................
3 ....................
4 ....................
5 ....................
6 ....................
7 ....................
8 ....................
9 ....................

Turn = 3.
  01234567890123456789
0 rrrh................
1 ....tt..............
2 ....................
3 ..r.t...............
4 .r.t................
5 ....................
6 .t..................
7 ....h..f............
8 ....................
9 ........r...........
0 ....................
1 ....................
2 ....................
3 ....................
4 ....................
5 ....................
6 ....................
7 ....................
8 ....................
9 ....................

Turn = 4.
  01234567890123456789
0 rrrh................
1 ....tt..............
2 ....................
3 ....t...............
4 ..rt................
5 .t..................
6 .t..................
7 .......f............
8 ....h...............
9 ....................
0 ........r...........
1 ....................
2 ....................
3 ....................
4 ....................
5 ....................
6 ....................
7 ....................
8 ....................
9 ....................

Turn = 5.
  01234567890123456789
0 rr.h................
1 ..r.tt..............
2 ....................
3 ....t...............
4 ...t................
5 .tr.................
6 .t..................
7 .......f............
8 ....................
9 ....h...............
0 ....................
1 ........r...........
2 ....................
3 ....................
4 ....................
5 ....................
6 ....................
7 ....................
8 ....................
9 ....................

*** Darwin 20x20 ***
Turn = 0.
  01234567890123456789
0 f.r.................
1 .rrrtt..............
2 ....................
3 ...hh...............
4 ...hh...............
5 ....................
6 .t......r...........
7 .......f............
8 ....................
9 ....................
0 ....................
1 ....................
2 ....................
3 ....................
4 ....................
5 ....................
6 ....................
7 ....................
8 ....................
9 ....................

Turn = 1.
  01234567890123456789
0 fr.r................
1 ..r.tt..............
2 .r.h................
3 ...h................
4 ..h.................
5 ....h...............
6 .t..................
7 .......fr...........
8 ....................
9 ....................
0 ....................
1 ....................
2 ....................
3 ....................
4 ....................
5 ....................
6 ....................
7 ....................
8 ....................
9 ....................

Turn = 2.
  01234567890123456789
0 rr.r................
1 ...htt..............
2 ..r.................
3 .rh.................
4 .h..................
5 ....................
6 .t..h...............
7 .......f............
8 ........r...........
9 ....................
0 ....................
1 ....................
2 ....................
3 ....................
4 ....................
5 ....................
6 ....................
7 ....................
8 ....................
9 ....................

Turn = 3.
  01234567890123456789
0 rrrh................
1 ....tt..............
2 ..r.................
3 .rr.................
4 r...................
5 ....................
6 .t..................
7 ....h..f............
8 ....................
9 ........r...........
0 ....................
1 ....................
2 ....................
3 ....................
4 ....................
5 ....................
6 ....................
7 ....................
8 ....................
9 ....................

Turn = 4.
  01234567890123456789
0 .rrh................
1 r...tt..............
2 ..r.................
3 ..r.................
4 rr..................
5 ....................
6 .t..................
7 .......f............
8 ....h...............
9 ....................
0 ........r...........
1 ....................
2 ....................
3 ....................
4 ....................
5 ....................
6 ....................
7 ....................
8 ....................
9 ....................

Turn = 5.
  01234567890123456789
0 .r.h................
1 ..r.tt..............
2 r..r................
3 r..r................
4 ....................
5 .r..................
6 .t..................
7 .......f............
8 ....................
9 ....h...............
0 ....................
1 ........r...........
2 ....................
3 ....................
4 ....................
5 ....................
6 ....................
7 ....................
8 ....................
9 ....................

*** Darwin 20x20 ***
Turn = 0.
  01234567890123456789
0 f.r.................
1 .rrrtt..............
2 ....................
3 ...hh...............
4 ...hh...............
5 ....................
6 .t......r...........
7 .......f............
8 ....................
9 ....................
0 ....................
1 ....................
2 ....................
3 ....................
4 ....................
5 ....................
6 ....................
7 ....................
8 ....................
9 ....................

Turn = 1.
  01234567890123456789
0 fr.r................
1 .rr.tt..............
2 ...h................
3 .....h..............
4 ..h.................
5 ....h...............
6 .t..................
7 .......fr...........
8 ....................
9 ....................
0 ....................
1 ....................
2 ....................
3 ....................
4 ....................
5 ....................
6 ....................
7 ....................
8 ....................
9 ....................

Turn = 2.
  01234567890123456789
0 rrrr................
1 .r.htt..............
2 ....................
3 ......h.............
4 .h..................
5 ....................
6 .t..h...............
7 .......f............
8 ........r...........
9 ....................
0 ....................
1 ....................
2 ....................
3 ....................
4 ....................
5 ....................
6 ....................
7 ....................
8 ....................
9 ....................

Turn = 3.
  01234567890123456789
0 rrrhr...............
1 ....tt..............
2 .r..................
3 .......h............
4 h...................
5 ....................
6 .t..................
7 ....h..f............
8 ....................
9 ........r...........
0 ....................
1 ....................
2 ....................
3 ....................
4 ....................
5 ....................
6 ....................
7 ....................
8 ....................
9 ....................

Turn = 4.
  01234567890123456789
0 rrrh.r..............
1 ....tt..............
2 ....................
3 .r......h...........
4 h...................
5 ....................
6 .t..................
7 .......f............
8 ....h...............
9 ....................
0 ........r...........
1 ....................
2 ....................
3 ....................
4 ....................
5 ....................
6 ....................
7 ....................
8 ....................
9 ....................

Turn = 5.
  01234567890123456789
0 rrrh..r.............
1 ....tt..............
2 ....................
3 .........h..........
4 hr..................
5 ....................
6 .t..................
7 .......f............
8 ....................
9 ....h...............
0 ....................
1 ........r...........
2 ....................
3 ....................
4 ....................
5 ....................
6 ....................
7 ....................
8 ....................
9 ....................
